# Blender MTL File: 'Pluto.blend'
# Material Count: 1

newmtl Material.001
Ns 0.000000
Ka 0.363636 0.363636 0.363636
Kd 0.800000 0.800000 0.800000
Ks 0.500000 0.500000 0.500000
Ke 0.000000 0.000000 0.000000
Ni 1.450000
d 1.000000
illum 3
map_Kd plutomap2k.jpg
map_Ks plutobump2k.jpg
