# Blender v2.82 (sub 7) OBJ File: ''
# www.blender.org
mtllib asteroid.mtl
o LPP
v -0.613175 0.583380 -0.623726
v -0.304419 0.622537 -0.858142
v -0.678759 0.320822 -0.651157
v -0.565152 -0.366286 1.187229
v -0.245069 -0.610968 1.367126
v -0.341431 -0.397319 1.272041
v 0.656749 -0.814367 0.345808
v 0.502161 -1.074338 0.214623
v 0.538550 -0.940221 -0.043741
v 0.278374 -1.187836 0.062938
v 0.153966 1.019590 -0.551196
v 0.007235 1.040148 -0.557004
v 0.098608 1.175919 -0.388549
v -0.057988 0.472650 1.265210
v 0.158593 0.070841 1.342773
v 0.345750 0.123930 1.235437
v 0.286068 -1.120149 -0.266984
v -0.050140 -1.357678 -0.231656
v -0.016451 -1.196942 -0.370040
v 0.802617 0.041876 -0.786785
v 0.581175 -0.250643 -0.763803
v 0.625147 -0.058743 -0.839096
v -0.172754 1.291766 0.422251
v -0.584810 1.186974 0.530693
v -0.320696 1.228386 0.588094
v -0.815504 0.049409 0.750263
v -0.741305 -0.220551 0.955138
v -0.784113 -0.002918 0.922725
v -0.734724 -1.465976 0.525300
v -0.622877 -1.569193 0.434037
v -0.428896 -1.707530 0.521323
v -0.930417 -0.456799 -0.162228
v -0.992964 -0.467682 0.195237
v -1.057209 -0.237338 0.100389
v -0.781552 -1.170163 -0.155261
v -0.703358 -1.333702 -0.046854
v -0.879787 -1.298866 0.049118
v -0.575827 -0.922620 -0.574931
v -0.103675 -0.820012 -0.771010
v -0.343203 -1.120770 -0.580552
v 0.748820 0.629298 -0.456678
v 0.773172 0.535065 -0.627843
v 0.722469 0.843397 -0.442036
v 0.287841 1.312213 0.425024
v 0.463507 1.071648 0.770126
v 0.751248 1.071606 0.529025
v 0.684534 -0.541016 0.802167
v 0.596333 -0.854657 0.791721
v 0.602529 -0.827437 0.613500
v -0.305724 -0.873123 1.310955
v -0.316198 -1.145899 1.240570
v -0.011900 -1.022179 1.298162
v 0.583746 -0.243368 1.028050
v 0.629871 -0.545563 0.943504
v 0.745056 -0.321199 0.783807
v 1.039713 0.823361 0.234417
v 0.799095 1.043358 0.222035
v -0.860076 0.395191 -0.443397
v -0.877799 0.094107 -0.550271
v -0.986016 0.187735 -0.346027
v -0.753648 0.879204 0.708076
v -0.576114 0.868444 0.903669
v -0.563706 1.065790 0.735367
v 0.415979 -0.347868 -0.906739
v -0.545250 0.079805 -0.742192
v -0.686235 0.134421 -0.642477
v -0.464144 -1.430858 0.662623
v -0.996661 -0.728500 0.088966
v -0.975656 -0.865232 0.443251
v -0.923812 -0.599741 0.558785
v 0.655820 0.439981 -0.874336
v 0.701596 0.194483 -0.739526
v 0.558458 0.139430 -0.932729
v -0.557524 0.270842 -0.615537
v -0.990846 0.013809 -0.333417
v -0.943027 -0.019050 -0.225685
v -0.989662 0.349887 -0.191804
v -0.762693 -0.257745 -0.666510
v -0.569135 -0.259791 -0.897649
v -0.722010 -0.375018 -0.760820
v -0.354316 1.068137 0.738476
v -0.142060 0.120327 1.290138
v -0.316633 0.307665 1.173069
v 0.880481 0.186385 -0.153860
v 1.067569 0.118375 -0.109225
v 0.973932 0.015984 -0.363735
v 0.830116 0.857669 0.626911
v 1.008258 0.568820 0.441967
v -0.089233 -1.012762 -0.656786
v 0.540785 -0.049277 -0.970180
v 0.188246 -0.263178 -1.019402
v 0.365321 -0.451146 1.319438
v 0.443280 -0.615459 1.159064
v 0.450407 -0.314197 1.134784
v 0.065096 -0.919333 1.307725
v 0.150049 -0.895520 1.211008
v -0.066969 0.949237 -0.544605
v -0.138380 0.754952 -0.740809
v -0.327326 0.790289 -0.684587
v -0.016012 0.488937 -0.823878
v -0.098296 0.448140 -0.893865
v -0.243723 0.492772 -0.823721
v 0.298756 -1.296874 0.275101
v -0.031185 -1.606734 0.554555
v -0.005866 -1.466303 0.077436
v 0.126420 -1.165064 1.234718
v 0.313568 -1.294454 0.875333
v 0.371846 -1.031066 0.998840
v -0.157462 1.357372 0.109222
v 0.029525 1.366926 0.164933
v 0.043738 1.294922 -0.146313
v -0.847012 1.072918 0.409129
v -0.685690 0.982944 0.483984
v -0.529500 1.240163 0.380347
v 0.991906 -0.230082 -0.549596
v 0.817342 -0.490664 -0.498486
v 0.794093 -0.364836 -0.698988
v 1.015448 -0.298946 0.051036
v 1.006460 -0.518746 -0.038533
v 1.009966 -0.291966 -0.184181
v -0.665115 1.000491 -0.130297
v -0.627456 1.118052 0.008409
v -0.477365 1.129583 -0.229635
v -0.747224 0.830586 -0.340909
v -0.551567 0.962388 -0.377958
v -0.166791 -1.646243 0.903509
v 0.087063 -1.471712 0.680495
v -0.143743 -1.426796 1.056697
v -0.402934 -1.328928 1.210209
v -0.323014 -1.624215 0.877322
v -0.318531 -1.491304 1.087682
v 1.069053 0.500968 0.021560
v 0.951463 0.891076 -0.072545
v 0.849641 0.736643 -0.324505
v 0.775988 1.025011 -0.084552
v -0.963320 0.567271 0.105368
v -1.006778 0.401599 0.228263
v -0.992381 0.524002 0.374348
v -0.980121 0.041802 0.636414
v -0.988928 -0.052109 0.413192
v -0.893074 -0.251785 0.492368
v 0.890106 0.229685 -0.374018
v 0.876931 0.481665 -0.213481
v 0.927301 0.581913 -0.362778
v 1.018606 0.754925 -0.124878
v -0.348167 -1.382043 -0.239132
v -0.539401 -1.644686 0.353517
v -0.303157 -1.572342 0.075176
v 0.159910 -0.611637 1.366459
v -0.025973 -0.762954 1.276648
v 0.084971 -0.595071 1.336556
v 0.454793 0.043662 -0.958741
v 0.288736 -0.084437 -0.940320
v 0.546989 0.344477 -0.925319
v 0.283737 0.101223 -0.855434
v 0.555663 0.665052 0.948372
v 0.854588 0.529640 0.743432
v 0.760856 0.826577 0.677970
v 0.625018 0.815883 0.832916
v -0.704804 -1.429470 0.858008
v -0.833050 -1.235507 0.677225
v -0.905327 -0.896357 0.672237
v -0.730658 -0.773412 0.741309
v -0.027988 0.212038 -0.741929
v -0.114725 0.309955 -0.921860
v -0.030778 0.060625 -0.793859
v 0.078836 -0.113178 -0.958102
v -0.136762 0.161722 -0.862413
v 1.121230 0.311847 0.305770
v 0.783542 -0.497502 0.481916
v -0.369615 -0.786238 1.271979
v -0.545290 -0.814250 1.208211
v -0.730983 -0.963205 0.876128
v -0.618057 -1.131489 0.990963
v -0.664262 -0.976254 1.053456
v 0.586988 0.474189 -0.787248
v 0.249093 0.891746 -0.563771
v 0.418182 1.087918 -0.380042
v 0.453569 0.880773 -0.698301
v -0.926726 -0.962692 0.025593
v -0.894577 -0.732545 -0.116047
v -0.972895 -0.579197 -0.241143
v -1.032750 -0.554799 0.320230
v -0.526201 -0.518715 -0.832190
v -0.639423 -0.714993 -0.644600
v 1.149447 0.012845 0.103297
v 1.113707 0.156826 0.219206
v 1.109299 -0.149933 -0.090669
v 0.343147 0.935590 0.880607
v 0.226742 0.860310 1.034038
v 0.496015 0.631276 1.060956
v -0.305193 1.029178 0.883501
v -0.504267 -0.424754 -0.823266
v -0.335009 -0.331658 -0.966251
v -0.050682 -0.164245 -1.033174
v -0.203249 0.009617 -0.847695
v -0.043402 -1.382784 1.141634
v 0.130093 -1.340263 1.018466
v -0.727647 -0.578261 0.872433
v -0.894006 -0.137681 0.746398
v 0.305282 1.244310 -0.059824
v 0.238149 1.240183 -0.234563
v 0.700772 1.182837 0.219373
v 0.504405 -0.600626 -0.715217
v 0.563789 -0.687276 -0.554546
v 0.276979 -0.789988 -0.689309
v 0.164186 -0.581655 -0.836588
v -0.057757 -1.211232 1.193851
v -0.220577 -1.377092 1.220396
v -0.233090 -0.180091 -1.035293
v -0.311088 -0.464689 -0.928302
v 0.143964 -0.474513 -0.966070
v 0.339601 -1.210634 0.782126
v 0.287580 -1.318064 0.523130
v 0.495047 -1.095852 0.604777
v 0.464559 -0.998471 0.753940
v 0.423978 -0.877166 1.050806
v -0.810215 0.417510 0.861265
v -0.711487 0.090343 0.861507
v -0.292040 0.458905 1.220307
v 0.131863 1.372830 -0.052433
v 0.582538 1.203831 0.332733
v -0.031745 -0.391354 1.346702
v 0.040455 -0.064516 1.357055
v 0.343150 -0.254794 1.314803
v 0.449356 -0.017527 1.168812
v -0.285155 -1.687026 0.529837
v -0.215489 0.950081 -0.523205
v -0.289524 1.070421 -0.457409
v -0.140146 1.335783 -0.181435
v 0.626460 0.471197 0.934998
v 0.811502 0.326852 0.704495
v -0.903631 0.329866 0.673281
v -0.776503 0.549969 0.667008
v -0.872010 0.743659 0.558977
v -0.981743 0.261056 0.602020
v -1.021647 0.450567 0.509654
v -0.808474 -1.316520 0.146468
v -0.933652 -1.172726 0.075652
v -0.914343 -1.205135 0.377470
v 0.887237 -0.382420 -0.366157
v 0.959520 -0.370858 0.241964
v 0.804570 -0.619052 0.027316
v -0.318126 1.343508 0.389331
v -0.650687 1.123014 0.281732
v 0.559034 -0.882602 0.882127
v 0.268536 -1.252773 -0.107373
v 0.844204 -0.601556 -0.156452
v 0.753950 -0.620821 -0.444305
v -0.426346 0.816807 0.951689
v -0.451037 0.636218 1.101111
v -0.181266 0.712493 1.104414
v -0.801654 0.710518 0.792173
v -0.541401 0.762251 1.018468
v -0.900191 -0.442361 -0.529082
v -0.807385 -0.604990 -0.524020
v 0.097282 0.754507 1.132988
v 0.446178 0.380485 1.061008
v 0.659744 0.290780 0.993994
v 0.834359 0.097601 0.786319
v 0.150719 -1.492874 0.526072
v -1.003055 -0.148670 0.178776
v -1.089184 0.209762 0.359489
v -0.986385 0.253271 0.089320
v -0.029935 1.382060 0.539077
v 0.347670 1.157491 0.709213
v 0.143036 1.348729 0.468036
v -0.617772 -0.738126 1.065776
v -0.623475 -0.566522 0.983835
v -0.432632 -0.668103 1.198946
v 0.236613 0.981252 0.818175
v 0.135070 0.897627 0.896702
v 0.208865 1.164842 0.752320
v -0.281731 0.834153 1.071600
v -0.110813 1.035386 0.802859
v 0.053633 0.880175 1.017052
v -0.951522 0.153094 0.590429
v -0.340035 0.353793 -0.720246
v 1.062368 0.592415 0.156098
v -0.142064 0.885813 1.056196
v 0.091317 0.562969 1.158599
v -0.882303 -0.215956 -0.574479
v -0.897161 -0.373243 -0.285887
v 0.923672 0.303917 -0.660083
v 0.353528 0.354425 1.153380
v -1.051167 -0.237921 -0.038448
v -1.025210 0.092438 -0.056003
v 0.294274 1.158920 -0.358076
v -0.089511 0.604355 -0.760155
v -0.611774 -1.162999 -0.367998
v -0.439438 -1.433425 -0.275365
v -0.641642 -1.509590 -0.050040
v -0.390080 -1.552715 0.057377
v -0.224978 -1.397181 -0.179564
v -0.274271 -1.608635 -0.019628
v -1.035262 0.328597 -0.045515
v 1.104635 0.055735 0.354887
v 0.999302 0.021382 0.476488
v 1.047315 0.277826 0.419338
v 0.971739 0.490657 0.619256
v 0.893903 0.231573 0.669142
v -0.412332 -1.508951 0.971910
v -0.495135 -1.421294 1.078803
v 0.355272 -0.926114 -0.597002
v 0.569114 -0.808791 -0.363541
v 0.470847 1.250573 -0.096563
v -0.749381 -1.115087 0.882370
v -0.706569 -1.295888 0.969903
v -0.646675 0.620003 0.936566
v -0.746978 0.477947 0.761240
v 0.408284 0.613092 -0.823191
v 0.337335 0.543832 -0.902335
v 0.283956 0.690933 -0.765194
v 0.291033 0.356589 -0.922167
v 0.149478 0.196504 -0.745823
v 0.112751 0.418881 -0.803070
v 0.067713 -0.519308 -1.019383
v -0.050764 -0.635848 -0.875171
v -0.254642 -0.580577 -0.905128
v -0.412408 -0.655008 -0.846526
v -0.176949 -0.786605 -0.862190
v -0.742638 0.561779 0.943581
v -0.703311 0.365546 0.988873
v -0.495234 0.023289 1.213495
v -0.454554 0.406304 1.137936
v 0.984930 0.595934 -0.154550
v 0.520303 -0.485236 -0.813379
v 0.036048 0.959708 0.761236
v 0.009721 1.195119 0.707709
v -0.175581 1.313870 0.631053
v -1.017822 -0.236377 0.294420
v -0.919450 -0.363114 0.456266
v -1.012603 -0.447305 0.418571
v 0.054271 -1.348394 -0.119214
v -0.168115 -0.452139 -1.038746
v 0.496532 0.469637 -0.782402
v 0.656731 0.933776 -0.402069
v 0.655270 0.711705 -0.509456
v 0.610797 0.861433 -0.560467
v 0.393230 -0.770114 1.251049
v -0.511436 -0.143745 -0.891946
v 0.428347 0.300835 -0.965295
v 0.301703 0.198137 -0.915383
v -0.289375 -1.195685 -0.433607
v -0.386861 0.191123 -0.695896
v 0.914600 0.092011 -0.483418
v 0.839460 -0.080554 -0.622326
v -0.857293 0.853840 0.331526
v -1.001262 0.653818 0.476660
v -0.924601 0.507512 0.529414
v -0.468305 -1.591551 0.624657
v -0.336757 -1.658906 0.755414
v 1.062257 -0.050911 -0.323227
v -0.920401 0.753191 0.063776
v -0.830826 0.987765 0.353711
v -0.818780 0.964424 -0.015494
v -0.751441 1.081671 0.185808
v -0.801677 -0.425344 0.613366
v -0.956144 -0.485465 0.597520
v -0.801554 -0.302026 0.793841
v 0.890023 -0.545532 0.247522
v 0.988566 -0.351822 0.357181
v -0.826264 0.604603 -0.342219
v -0.858788 0.669299 -0.143241
v -0.848416 -1.192693 0.521034
v -0.915331 -1.093505 0.636665
v -0.137481 -0.114354 1.354259
v -0.251076 0.084077 1.225785
v -0.854083 -1.351640 0.355540
v -0.732624 -1.469890 0.201134
v -0.761543 -1.545637 0.468487
v -0.004543 -0.349196 -1.083629
v 0.213112 -0.435994 1.342358
v -0.667851 -1.415545 0.041174
v -0.071744 0.501240 1.294790
v 0.141603 0.723938 -0.766824
v 0.028675 0.728709 -0.829903
v -0.132179 -1.631152 0.746491
v -0.904951 -1.060352 0.091034
v 0.166454 0.029662 -0.808498
v -0.809266 -0.780483 -0.333600
v -0.763559 -1.007558 -0.286784
v 0.469856 1.231946 -0.252150
v 0.638184 1.144934 -0.128578
v 0.541539 0.987204 -0.473683
v 0.571796 1.233148 0.078578
v 0.685296 1.196903 -0.097942
v 1.159897 0.056348 -0.013151
v 0.297330 1.365196 0.125393
v 0.483669 0.183355 1.103041
v 0.631450 -0.049698 1.060082
v 0.660506 0.155692 0.966679
v 0.650371 0.139011 0.913310
v 0.720744 -0.070191 0.891143
v 0.480821 1.333399 0.156954
v 0.003740 1.430957 0.387094
v 0.871726 0.152297 -0.688722
v 0.371596 -1.028857 -0.220978
v 0.594627 -0.897080 -0.258147
v 0.686296 0.599118 -0.659507
v -0.141954 -1.020369 -0.587525
v 0.881749 -0.109928 0.559803
v 0.537730 0.742234 -0.650225
v -0.380997 -0.230681 1.279390
v -0.005890 -0.229201 1.383436
v -0.550453 -0.000133 1.035969
v 0.838006 -0.203456 0.775820
v 0.782924 -0.137949 0.698077
v 0.814039 -0.412136 0.667671
v 0.032096 0.923115 -0.671272
v -0.477617 1.101223 -0.339537
v -0.262176 1.229281 -0.146507
v -0.142434 1.241570 -0.278344
v -0.966013 -0.127535 -0.531041
v -0.490778 1.305849 0.296348
v 0.389894 1.175000 0.776748
v -0.755391 -0.800149 -0.489610
v -0.773076 -0.887891 -0.523453
v -0.754165 0.969750 -0.173367
v -0.741344 0.844936 -0.191025
v -0.771021 0.929666 -0.099794
v -0.703022 -0.421506 0.938502
v -0.617031 -0.491501 1.113672
v -0.284605 0.101752 -0.872112
v -0.270232 0.059785 -0.961173
v 0.407172 -0.960310 1.100588
v 0.629639 1.085059 0.668301
v 0.482927 -0.754452 0.974789
v -0.880576 0.135272 0.625385
v 0.782057 0.959258 -0.254765
v 0.660553 0.960075 -0.258471
v 0.598453 -0.725250 0.812415
v 0.651888 -0.693131 0.882399
v -0.541183 1.121369 -0.365442
v 0.130694 -0.881716 -0.737302
v -0.601972 -1.263905 1.128930
v -0.503479 -1.177176 1.195132
v -0.352157 -1.242394 1.193495
v -0.794064 0.809150 0.466549
v -0.795093 0.865565 0.564262
v -0.511760 -0.991720 1.165394
v -0.013145 1.331941 0.305987
v -0.795398 -0.680143 -0.374095
v -0.689859 0.648881 -0.476660
v -0.564129 -0.178015 1.081961
v -0.539390 -1.615534 0.226994
v -0.825532 -1.409164 0.525660
v 0.344985 -0.956281 -0.389045
v 0.163061 -0.938819 -0.574546
v 0.005800 -0.888674 -0.690296
v -0.681255 -0.016207 0.943601
v -0.629735 -0.339435 0.992893
v -0.503992 1.213711 0.115962
v -0.283647 1.282465 -0.081078
v -0.421910 1.246155 -0.145117
v 0.505646 0.030269 1.041941
v 0.192980 -1.412777 0.731294
v -0.156309 -1.607928 0.456703
v -0.048675 -1.671343 0.642376
v -0.069009 -0.892823 1.295949
v 0.181426 1.109723 0.714426
v 0.058505 1.194856 -0.232136
v 0.706167 -0.280729 -0.703054
v -0.459075 -1.591839 0.803416
v -0.024740 1.255395 -0.324890
v -0.549625 -1.529539 0.058126
v 0.661240 -0.491303 -0.842403
v 0.654787 -0.506137 -0.754207
v -0.663997 0.471665 1.061634
v -0.902257 -0.549477 -0.408268
v -0.963951 -0.132396 -0.221469
v 0.048366 -1.096107 -0.490822
v 0.202010 -1.007633 1.181514
v 0.121447 -1.072641 1.268650
v 0.313113 -0.904186 1.240014
v -0.129033 -1.535502 -0.004926
v 0.219237 -1.283888 0.157176
v -0.102529 1.093038 -0.380235
v 0.466868 -1.208337 0.266799
v 0.522479 -1.077048 0.426979
v -0.845831 -1.047189 0.825452
v -0.411950 0.509769 1.182563
v -0.451080 1.076198 -0.454310
v -0.355418 0.447844 1.120167
v 0.151613 0.886115 -0.671164
v 0.173734 1.390612 0.373925
v 0.473967 0.768477 -0.699375
v -0.533229 -0.699912 -0.665473
v 0.390780 0.186070 1.242872
v -0.272516 -0.306519 1.258609
v 0.137975 -0.075278 -0.853843
v -0.162110 -0.709409 1.369426
v -0.088721 -0.789674 1.376989
v -0.076462 0.276603 1.259867
v 0.006379 0.080288 1.365018
v 0.496156 0.725072 -0.795453
v -0.795931 -0.304529 0.638309
v -0.100458 0.364421 -0.863720
v 0.133203 1.003644 -0.686197
v -0.868661 0.568782 -0.402585
vt 0.616119 0.794222
vt 0.672038 0.796871
vt 0.606666 0.827658
vt 0.345922 0.492033
vt 0.381844 0.419801
vt 0.384007 0.459512
vt 0.325588 0.147420
vt 0.279760 0.167912
vt 0.245212 0.134318
vt 0.237189 0.185127
vt 0.714278 0.720924
vt 0.696132 0.728043
vt 0.697772 0.699754
vt 0.593377 0.461378
vt 0.622736 0.401809
vt 0.665074 0.402304
vt 0.184609 0.165022
vt 0.164509 0.221033
vt 0.143757 0.203885
vt 0.883940 0.739158
vt 0.903436 0.792546
vt 0.877549 0.778830
vt 0.627759 0.612342
vt 0.576557 0.617420
vt 0.603990 0.598141
vt 0.260336 0.586128
vt 0.294408 0.535472
vt 0.290719 0.569709
vt 0.207843 0.359564
vt 0.205391 0.334056
vt 0.226739 0.311088
vt 0.061905 0.449744
vt 0.125761 0.481371
vt 0.104679 0.515176
vt 0.111902 0.341351
vt 0.136288 0.328764
vt 0.141721 0.356505
vt 0.051314 0.285641
vt 0.061785 0.182666
vt 0.088234 0.244228
vt 0.816480 0.679197
vt 0.827481 0.704058
vt 0.791880 0.676235
vt 0.684264 0.593106
vt 0.693612 0.537763
vt 0.735717 0.556982
vt 0.424699 0.189791
vt 0.383236 0.213169
vt 0.363728 0.183569
vt 0.350896 0.400617
vt 0.328247 0.376458
vt 0.366084 0.349278
vt 0.750400 0.363070
vt 0.801435 0.333673
vt 0.812328 0.381493
vt 0.792125 0.571436
vt 0.757752 0.589713
vt 0.565149 0.802775
vt 0.565052 0.848042
vt 0.533040 0.813725
vt 0.534453 0.603398
vt 0.547203 0.564280
vt 0.565998 0.590858
vt 0.867328 0.854390
vt 0.635365 0.867083
vt 0.604309 0.851994
vt 0.239745 0.344277
vt 0.119626 0.431584
vt 0.175791 0.438830
vt 0.193941 0.481839
vt 0.825101 0.745068
vt 0.859511 0.737916
vt 0.841469 0.781514
vt 0.625689 0.837951
vt 0.520777 0.832708
vt 0.499861 0.825470
vt 0.520448 0.777664
vt 0.584655 0.904348
vt 0.643014 0.916331
vt 0.602298 0.926865
vt 0.588959 0.575166
vt 0.566092 0.425603
vt 0.541618 0.467240
vt 0.878471 0.622206
vt 0.889850 0.595977
vt 0.906973 0.648687
vt 0.750309 0.530665
vt 0.801320 0.528957
vt 0.090042 0.197445
vt 0.854481 0.805726
vt 0.808312 0.880357
vt 0.461591 0.332535
vt 0.441159 0.290915
vt 0.489036 0.300197
vt 0.380150 0.349037
vt 0.390487 0.332187
vt 0.687004 0.739881
vt 0.690128 0.773515
vt 0.659732 0.772496
vt 0.720704 0.801164
vt 0.706906 0.812416
vt 0.682485 0.809339
vt 0.264590 0.205860
vt 0.260637 0.270175
vt 0.210315 0.232283
vt 0.358079 0.319441
vt 0.334589 0.263541
vt 0.374597 0.269694
vt 0.644978 0.648943
vt 0.663703 0.634529
vt 0.679200 0.670137
vt 0.553442 0.650812
vt 0.550304 0.628977
vt 0.589501 0.635180
vt 0.939461 0.679017
vt 0.986109 0.678497
vt 0.952147 0.730036
vt 0.937186 0.540911
vt 0.979324 0.558162
vt 0.949827 0.597595
vt 0.586384 0.710502
vt 0.591171 0.687966
vt 0.619463 0.708701
vt 0.584633 0.749898
vt 0.614678 0.740309
vt 0.282134 0.311343
vt 0.290742 0.265527
vt 0.309048 0.323523
vt 0.304081 0.367466
vt 0.270945 0.324154
vt 0.293977 0.341952
vt 0.837752 0.584645
vt 0.794713 0.615250
vt 0.810626 0.654111
vt 0.771914 0.628007
vt 0.508003 0.715820
vt 0.480327 0.707218
vt 0.486867 0.672826
vt 0.219015 0.585650
vt 0.171283 0.563144
vt 0.192166 0.534138
vt 0.877670 0.656882
vt 0.846550 0.632302
vt 0.832766 0.655043
vt 0.813054 0.616673
vt 0.140367 0.261281
vt 0.205936 0.315321
vt 0.188765 0.270733
vt 0.428425 0.358566
vt 0.392701 0.370349
vt 0.422150 0.372653
vt 0.835383 0.805607
vt 0.811971 0.842695
vt 0.819781 0.770063
vt 0.797514 0.819871
vt 0.706781 0.482696
vt 0.765024 0.491299
vt 0.742372 0.520642
vt 0.716577 0.507670
vt 0.245367 0.377109
vt 0.218443 0.398875
vt 0.214043 0.443227
vt 0.242890 0.463316
vt 0.739272 0.832072
vt 0.711866 0.831047
vt 0.747166 0.847400
vt 0.774966 0.871161
vt 0.716507 0.849341
vt 0.842379 0.532288
vt 0.379732 0.124218
vt 0.347469 0.418087
vt 0.320481 0.433289
vt 0.256745 0.434844
vt 0.273275 0.408532
vt 0.285657 0.427086
vt 0.811317 0.745185
vt 0.734555 0.725539
vt 0.739073 0.686016
vt 0.764865 0.721204
vt 0.118669 0.393948
vt 0.084630 0.406469
vt 0.057605 0.420902
vt 0.149052 0.477379
vt 0.643213 0.956230
vt 0.595008 0.981742
vt 0.892084 0.553081
vt 0.866450 0.536869
vt 0.923370 0.580503
vt 0.674728 0.517483
vt 0.652731 0.502276
vt 0.691748 0.471965
vt 0.588397 0.555081
vt 0.646770 0.942015
vt 0.692362 0.927181
vt 0.751405 0.891209
vt 0.711418 0.868461
vt 0.324355 0.323137
vt 0.330194 0.296006
vt 0.270017 0.486750
vt 0.245528 0.556997
vt 0.708461 0.651471
vt 0.706334 0.673912
vt 0.740568 0.599001
vt 0.124353 0.076523
vt 0.158914 0.084067
vt 0.110598 0.123339
vt 0.065202 0.116066
vt 0.341838 0.337614
vt 0.316373 0.346708
vt 0.713249 0.903132
vt 0.697189 0.947046
vt 0.073649 0.053578
vt 0.041434 0.104177
vt 0.335540 0.246343
vt 0.294600 0.229459
vt 0.333470 0.209903
vt 0.359306 0.226799
vt 0.398375 0.269230
vt 0.475419 0.567088
vt 0.420135 0.575934
vt 0.439532 0.534336
vt 0.557488 0.481243
vt 0.684083 0.652785
vt 0.723169 0.589127
vt 0.430132 0.410291
vt 0.597103 0.385962
vt 0.660067 0.342174
vt 0.693427 0.380809
vt 0.237864 0.297411
vt 0.667431 0.741801
vt 0.653223 0.728222
vt 0.658828 0.680317
vt 0.726216 0.463469
vt 0.779322 0.470899
vt 0.456629 0.608928
vt 0.490416 0.601502
vt 0.509666 0.630460
vt 0.444280 0.641393
vt 0.471366 0.653839
vt 0.155730 0.354373
vt 0.137144 0.374176
vt 0.175579 0.389544
vt 0.968442 0.644052
vt 0.292034 0.049232
vt 0.352886 0.067202
vt 0.289336 0.086449
vt 0.615380 0.625411
vt 0.575823 0.658104
vt 0.388599 0.231710
vt 0.443718 0.228777
vt 0.208750 0.184198
vt 0.256671 0.068133
vt 0.195375 0.062777
vt 0.560136 0.542488
vt 0.544068 0.519076
vt 0.588258 0.504158
vt 0.514103 0.590683
vt 0.541355 0.544043
vt 0.542263 0.919551
vt 0.550286 0.952287
vt 0.630259 0.490081
vt 0.690318 0.439649
vt 0.732616 0.439904
vt 0.789360 0.441409
vt 0.275443 0.249130
vt 0.425118 0.771645
vt 0.446860 0.695716
vt 0.477082 0.743609
vt 0.642854 0.592886
vt 0.682057 0.553007
vt 0.665237 0.594188
vt 0.300486 0.454416
vt 0.296331 0.480427
vt 0.342563 0.440596
vt 0.660462 0.529378
vt 0.643720 0.520671
vt 0.663648 0.553460
vt 0.582698 0.525107
vt 0.615121 0.551492
vt 0.628230 0.511549
vt 0.428555 0.638459
vt 0.410008 0.703074
vt 0.664033 0.829206
vt 0.819715 0.570494
vt 0.601077 0.520007
vt 0.626052 0.468198
vt 0.556398 0.889074
vt 0.494935 0.886836
vt 0.862822 0.698966
vt 0.719196 0.340488
vt 0.668630 0.435319
vt 0.428416 0.802428
vt 0.452323 0.824536
vt 0.481690 0.785486
vt 0.720205 0.687154
vt 0.702401 0.789815
vt 0.093753 0.300750
vt 0.133409 0.275978
vt 0.151421 0.309662
vt 0.179494 0.283046
vt 0.155927 0.248793
vt 0.177777 0.265145
vt 0.499451 0.758680
vt 0.863512 0.507923
vt 0.850983 0.479036
vt 0.928398 0.491974
vt 0.833230 0.510555
vt 0.789339 0.502981
vt 0.799224 0.469916
vt 0.275143 0.346157
vt 0.281936 0.365438
vt 0.138613 0.129263
vt 0.192077 0.102870
vt 0.727356 0.646914
vt 0.250683 0.414882
vt 0.258606 0.392154
vt 0.515007 0.554641
vt 0.483895 0.584923
vt 0.774419 0.756240
vt 0.770881 0.770686
vt 0.752623 0.754652
vt 0.779578 0.790293
vt 0.764436 0.821434
vt 0.744609 0.800299
vt 0.027535 0.118930
vt 0.040270 0.155007
vt 0.011170 0.187442
vt 0.010766 0.228267
vt 0.043480 0.189736
vt 0.499319 0.558089
vt 0.484223 0.533855
vt 0.492921 0.448896
vt 0.524883 0.493974
vt 0.831309 0.617540
vt 0.409698 0.635186
vt 0.105963 0.059510
vt 0.102400 0.017849
vt 0.634657 0.540565
vt 0.639317 0.566033
vt 0.623686 0.588267
vt 0.145517 0.526834
vt 0.182621 0.515655
vt 0.166467 0.497939
vt 0.187674 0.211312
vt 0.811714 0.917391
vt 0.736424 0.935355
vt 0.799724 0.754303
vt 0.776919 0.675244
vt 0.798690 0.695728
vt 0.779846 0.697848
vt 0.418206 0.304842
vt 0.652264 0.901432
vt 0.806664 0.782079
vt 0.793824 0.803603
vt 0.112302 0.242720
vt 0.661031 0.849056
vt 0.894526 0.676050
vt 0.911964 0.712337
vt 0.530003 0.664003
vt 0.497276 0.652605
vt 0.479200 0.637768
vt 0.238103 0.325743
vt 0.257904 0.315310
vt 0.918483 0.631486
vt 0.532051 0.708515
vt 0.544000 0.656369
vt 0.562278 0.703443
vt 0.565656 0.673000
vt 0.221090 0.510676
vt 0.199637 0.496710
vt 0.251062 0.527335
vt 0.337491 0.092266
vt 0.888141 0.405910
vt 0.906502 0.466561
vt 0.565615 0.768988
vt 0.546336 0.741627
vt 0.195161 0.397590
vt 0.208270 0.416772
vt 0.557816 0.390954
vt 0.540865 0.432394
vt 0.179701 0.369040
vt 0.171367 0.337901
vt 0.199626 0.351757
vt 0.769567 0.911589
vt 0.452230 0.361771
vt 0.151761 0.327086
vt 0.593635 0.466747
vt 0.732738 0.762983
vt 0.716922 0.771994
vt 0.272055 0.296037
vt 0.131882 0.387606
vt 0.779284 0.838234
vt 0.057968 0.366396
vt 0.084397 0.342173
vt 0.733751 0.664137
vt 0.751178 0.643856
vt 0.762083 0.690443
vt 0.730622 0.621352
vt 0.750558 0.635041
vt 0.894127 0.573142
vt 0.695672 0.628056
vt 0.701266 0.414612
vt 0.739842 0.390393
vt 0.741572 0.423489
vt 0.751523 0.424743
vt 0.777489 0.405622
vt 0.713536 0.615847
vt 0.649388 0.607077
vt 0.878076 0.713848
vt 0.200872 0.150613
vt 0.212475 0.114362
vt 0.813285 0.713711
vt 0.098229 0.205242
vt 0.843687 0.446880
vt 0.785515 0.717640
vt 0.499873 0.401237
vt 0.577742 0.363085
vt 0.464124 0.474329
vt 0.812697 0.403222
vt 0.818271 0.421939
vt 0.847381 0.394328
vt 0.706281 0.745211
vt 0.624414 0.721306
vt 0.642384 0.688316
vt 0.663276 0.695493
vt 0.544467 0.869664
vt 0.599903 0.644726
vt 0.681702 0.544493
vt 0.043075 0.335494
vt 0.053672 0.323930
vt 0.579949 0.721833
vt 0.571147 0.733087
vt 0.569465 0.715967
vt 0.288119 0.504730
vt 0.322801 0.482822
vt 0.374239 0.075790
vt 0.690622 0.862883
vt 0.695495 0.873292
vt 0.390028 0.280874
vt 0.717203 0.544735
vt 0.413265 0.254776
vt 0.428140 0.616167
vt 0.781972 0.648966
vt 0.770771 0.659352
vt 0.402885 0.210372
vt 0.415245 0.223718
vt 0.791540 0.933642
vt 0.708521 0.965501
vt 0.616581 0.724805
vt 0.096407 0.151658
vt 0.288230 0.388873
vt 0.304183 0.390744
vt 0.315993 0.371840
vt 0.525152 0.640716
vt 0.529902 0.625051
vt 0.311361 0.411519
vt 0.651798 0.620367
vt 0.043193 0.373276
vt 0.595605 0.777640
vt 0.453951 0.442821
vt 0.393905 0.486392
vt 0.340638 0.527532
vt 0.186869 0.313310
vt 0.829629 0.352796
vt 0.201811 0.371554
vt 0.168588 0.140865
vt 0.123712 0.157115
vt 0.089381 0.173312
vt 0.309024 0.566546
vt 0.307421 0.509365
vt 0.602501 0.667939
vt 0.637880 0.678154
vt 0.624144 0.690939
vt 0.712922 0.395293
vt 0.305787 0.260709
vt 0.239971 0.276581
vt 0.266038 0.280841
vt 0.372713 0.368086
vt 0.656320 0.549381
vt 0.440288 0.501004
vt 0.686610 0.683355
vt 0.927521 0.754117
vt 0.257313 0.331178
vt 0.678864 0.696216
vt 0.122655 0.535976
vt 0.168060 0.304405
vt 0.129978 0.012627
vt 0.122672 0.046982
vt 0.134164 0.048993
vt 0.505167 0.530043
vt 0.027987 0.399028
vt 0.151595 0.020098
vt 0.492028 0.839570
vt 0.465853 0.885293
vt 0.131492 0.185676
vt 0.380335 0.314594
vt 0.367774 0.326475
vt 0.398480 0.308080
vt 0.191489 0.245970
vt 0.017735 0.360627
vt 0.242373 0.203665
vt 0.673947 0.715390
vt 0.278702 0.186371
vt 0.312620 0.189358
vt 0.237307 0.424313
vt 0.541837 0.498613
vt 0.454429 0.422698
vt 0.487827 0.350142
vt 0.634087 0.732584
vt 0.540532 0.486932
vt 0.724512 0.742539
vt 0.670359 0.604517
vt 0.773934 0.729833
vt 0.665470 0.978300
vt 0.617790 0.987555
vt 0.018224 0.274487
vt 0.019062 0.302238
vt 0.672978 0.411807
vt 0.402009 0.459733
vt 0.516031 0.928266
vt 0.783521 0.851446
vt 0.382808 0.399015
vt 0.380047 0.383698
vt 0.293311 0.589134
vt 0.584263 0.439692
vt 0.594765 0.408394
vt 0.775029 0.742291
vt 0.189877 0.039242
vt 0.224687 0.527085
vt 0.709183 0.821762
vt 0.716972 0.735136
vt 0.566828 0.779821
vn -0.6252 0.3894 -0.6763
vn -0.3110 0.2849 -0.9067
vn -0.5060 0.0561 -0.8607
vn -0.6525 0.0477 0.7563
vn -0.1862 0.1832 0.9653
vn -0.2117 0.1855 0.9596
vn 0.8182 -0.5690 0.0826
vn 0.8376 -0.5141 -0.1849
vn 0.7417 -0.6661 -0.0783
vn 0.7124 -0.6945 -0.1002
vn 0.3557 0.6869 -0.6338
vn -0.2204 0.7505 -0.6230
vn -0.0055 0.8247 -0.5655
vn 0.0163 0.1553 0.9877
vn 0.3616 0.1889 0.9130
vn 0.4334 0.1384 0.8905
vn 0.5603 -0.7175 -0.4138
vn 0.2811 -0.7282 -0.6251
vn 0.2424 -0.7222 -0.6479
vn 0.6858 -0.0597 -0.7254
vn 0.5554 -0.1653 -0.8150
vn 0.5734 -0.3390 -0.7458
vn -0.3047 0.9362 0.1753
vn -0.5910 0.7530 0.2894
vn -0.3067 0.7992 0.5169
vn -0.7805 0.0773 0.6203
vn -0.7884 -0.0061 0.6152
vn -0.8491 0.1286 0.5124
vn -0.4282 -0.7643 0.4822
vn -0.5332 -0.8455 -0.0290
vn -0.0781 -0.9837 0.1618
vn -0.9665 0.0509 -0.2515
vn -0.9882 0.0170 -0.1522
vn -0.9872 -0.1164 0.1090
vn -0.7612 -0.4048 -0.5067
vn -0.7373 -0.5143 -0.4380
vn -0.7098 -0.6501 -0.2712
vn -0.3904 -0.4740 -0.7892
vn -0.0101 -0.6185 -0.7857
vn -0.2247 -0.5770 -0.7853
vn 0.8062 0.4599 -0.3723
vn 0.5952 0.4567 -0.6612
vn 0.6003 0.4174 -0.6822
vn 0.3162 0.8953 0.3139
vn 0.4184 0.6793 0.6029
vn 0.5980 0.7352 0.3191
vn 0.8897 -0.3699 0.2676
vn 0.9224 -0.3725 0.1024
vn 0.9108 -0.3997 0.1034
vn -0.2956 -0.1918 0.9359
vn -0.1759 -0.2366 0.9556
vn 0.0410 -0.2796 0.9592
vn 0.6961 -0.1667 0.6983
vn 0.7993 -0.1535 0.5811
vn 0.6987 -0.2010 0.6866
vn 0.8879 0.4332 0.1550
vn 0.7021 0.7099 0.0558
vn -0.7645 0.2413 -0.5977
vn -0.7084 0.1953 -0.6783
vn -0.9102 0.1711 -0.3771
vn -0.7895 0.3594 0.4975
vn -0.4742 0.5774 0.6647
vn -0.3578 0.7143 0.6015
vn 0.4090 -0.3565 -0.8400
vn -0.4277 0.4605 -0.7778
vn -0.3758 0.2022 -0.9044
vn -0.4368 -0.7999 0.4116
vn -0.9856 -0.0348 -0.1656
vn -0.9922 -0.0324 0.1204
vn -0.9254 -0.0472 0.3761
vn 0.7267 0.2222 -0.6500
vn 0.6729 0.2149 -0.7078
vn 0.5463 -0.0273 -0.8372
vn -0.2420 -0.0919 -0.9659
vn -0.9958 -0.0890 -0.0232
vn -0.9896 -0.0219 -0.1420
vn -0.9380 0.2235 -0.2650
vn -0.6948 0.0690 -0.7159
vn -0.5313 -0.0418 -0.8461
vn -0.6752 -0.1805 -0.7152
vn -0.1562 0.7813 0.6043
vn -0.4371 0.0791 0.8959
vn -0.3322 0.1153 0.9361
vn 0.7797 0.3129 -0.5423
vn 0.7301 0.4389 -0.5238
vn 0.7723 0.5049 -0.3855
vn 0.7823 0.3153 0.5372
vn 0.9098 0.2454 0.3347
vn 0.1784 -0.6507 -0.7381
vn 0.5059 -0.0903 -0.8579
vn 0.2437 -0.0218 -0.9696
vn 0.6131 -0.2119 0.7611
vn 0.7844 -0.0768 0.6155
vn 0.7798 -0.0260 0.6255
vn 0.4981 0.0425 0.8661
vn 0.1791 -0.3023 0.9362
vn -0.3037 0.5886 -0.7492
vn -0.1462 0.5768 -0.8037
vn -0.3748 0.6024 -0.7048
vn 0.1632 0.0289 -0.9862
vn -0.1246 0.1882 -0.9742
vn -0.1839 -0.1309 -0.9742
vn 0.6064 -0.7730 -0.1864
vn 0.5243 -0.8221 -0.2221
vn 0.5052 -0.8410 -0.1935
vn 0.4593 -0.5384 0.7065
vn 0.7678 -0.5654 0.3015
vn 0.7085 -0.4998 0.4983
vn -0.1107 0.9905 -0.0819
vn -0.0247 0.9997 0.0067
vn 0.1173 0.9050 -0.4089
vn -0.6092 0.5660 0.5555
vn -0.6801 0.5887 0.4370
vn -0.5189 0.8405 0.1559
vn 0.8621 -0.1136 -0.4938
vn 0.7978 -0.4978 -0.3402
vn 0.6212 -0.3278 -0.7118
vn 0.9540 -0.2576 0.1535
vn 0.8353 -0.5452 0.0705
vn 0.9084 -0.3550 -0.2209
vn -0.6025 0.7878 -0.1280
vn -0.7338 0.6582 -0.1684
vn -0.5427 0.7620 -0.3533
vn -0.6684 0.4718 -0.5750
vn -0.6082 0.4170 -0.6754
vn 0.5014 -0.7222 0.4765
vn 0.6005 -0.7354 0.3141
vn 0.4395 -0.7576 0.4825
vn -0.2866 -0.3789 0.8799
vn -0.2171 -0.8863 0.4091
vn -0.1403 -0.7579 0.6371
vn 0.9471 0.1333 -0.2919
vn 0.6920 0.6565 -0.3003
vn 0.6743 0.4349 -0.5968
vn 0.7369 0.6275 -0.2515
vn -0.9372 0.3242 -0.1291
vn -0.9796 0.1969 -0.0391
vn -0.9944 0.1050 -0.0140
vn -0.9396 -0.0151 0.3421
vn -0.9282 -0.2575 0.2687
vn -0.8850 -0.2715 0.3782
vn 0.9946 0.0513 0.0898
vn 0.9519 -0.1964 -0.2352
vn 0.9612 0.1394 -0.2381
vn 0.9261 0.2081 -0.3146
vn 0.2243 -0.8269 -0.5157
vn -0.4311 -0.8359 -0.3399
vn 0.2776 -0.9461 -0.1670
vn 0.2334 -0.1883 0.9540
vn 0.2343 -0.3328 0.9134
vn -0.1359 -0.0723 0.9881
vn -0.1217 0.2081 -0.9705
vn -0.3661 0.5050 -0.7816
vn 0.4062 0.3197 -0.8560
vn -0.4652 0.1757 -0.8676
vn 0.6115 0.3956 0.6852
vn 0.7385 0.1719 0.6520
vn 0.6690 0.3301 0.6660
vn 0.5385 0.4280 0.7259
vn -0.4441 -0.8695 0.2164
vn -0.8838 -0.3492 0.3116
vn -0.8373 0.1518 0.5253
vn -0.8126 0.1427 0.5651
vn 0.4065 -0.0781 -0.9103
vn 0.2107 -0.0803 -0.9743
vn 0.4027 0.6286 -0.6653
vn 0.2090 0.5609 -0.8011
vn -0.0435 0.1651 -0.9853
vn 0.9831 0.1595 0.0897
vn 0.8203 -0.4296 0.3775
vn -0.4503 -0.0166 0.8927
vn -0.5579 -0.0115 0.8298
vn -0.7840 0.2366 0.5740
vn -0.8780 -0.1114 0.4655
vn -0.8874 -0.0083 0.4609
vn -0.0541 0.5764 -0.8154
vn 0.0255 0.7289 -0.6842
vn 0.0461 0.6986 -0.7140
vn 0.1266 0.6709 -0.7307
vn -0.9222 -0.2917 -0.2540
vn -0.9140 -0.3311 -0.2342
vn -0.9516 -0.2202 -0.2146
vn -0.9550 -0.2763 0.1078
vn -0.5066 -0.3021 -0.8075
vn -0.5427 -0.4113 -0.7323
vn 0.8619 -0.2936 0.4135
vn 0.9642 -0.1823 0.1927
vn 0.9302 -0.3512 -0.1067
vn 0.2822 0.5767 0.7667
vn 0.2766 0.6344 0.7218
vn 0.3885 0.2117 0.8968
vn -0.1747 0.8320 0.5265
vn -0.4538 -0.2160 -0.8645
vn -0.3701 -0.2131 -0.9042
vn 0.0126 0.3512 -0.9362
vn -0.0860 0.3956 -0.9144
vn 0.4195 -0.7043 0.5728
vn 0.4611 -0.7661 0.4477
vn -0.9208 -0.1513 0.3596
vn -0.8726 -0.1279 0.4714
vn 0.2314 0.9003 -0.3687
vn 0.2346 0.9255 -0.2974
vn 0.6361 0.7569 0.1503
vn 0.3278 -0.6555 -0.6804
vn 0.5834 -0.6308 -0.5116
vn 0.4204 -0.3927 -0.8179
vn 0.3063 -0.5062 -0.8062
vn 0.1566 -0.4236 0.8922
vn 0.1341 -0.4476 0.8841
vn -0.2008 0.1250 -0.9716
vn -0.3757 -0.2151 -0.9014
vn 0.4619 -0.5530 -0.6934
vn 0.8515 -0.5072 0.1328
vn 0.7491 -0.6611 0.0426
vn 0.8032 -0.5769 0.1487
vn 0.7442 -0.5441 0.3874
vn 0.8996 -0.3068 0.3108
vn -0.8952 0.0788 0.4387
vn -0.8349 -0.0252 0.5498
vn -0.2830 0.1226 0.9512
vn 0.0538 0.9225 -0.3823
vn 0.4767 0.8511 0.2200
vn -0.1965 -0.1367 0.9709
vn 0.1178 0.0560 0.9915
vn 0.4958 0.1770 0.8502
vn 0.5827 0.1449 0.7997
vn 0.2233 -0.9694 -0.1015
vn 0.0171 0.6910 -0.7226
vn 0.0011 0.7088 -0.7054
vn -0.0582 0.9520 -0.3005
vn 0.7639 0.1860 0.6180
vn 0.7356 0.0630 0.6745
vn -0.9281 0.0040 0.3723
vn -0.7514 0.0634 0.6568
vn -0.7955 0.4002 0.4549
vn -0.6990 0.1408 0.7011
vn -0.9627 0.0868 0.2564
vn -0.6135 -0.7832 -0.1017
vn -0.9702 -0.1182 -0.2117
vn -0.9583 -0.2500 0.1385
vn 0.8729 -0.4191 -0.2498
vn 0.9328 -0.3374 0.1264
vn 0.7259 -0.6853 0.0589
vn -0.2218 0.9462 0.2357
vn -0.5247 0.8158 -0.2434
vn 0.6671 -0.5762 0.4721
vn 0.6117 -0.7224 -0.3223
vn 0.6389 -0.7674 -0.0540
vn 0.6551 -0.6591 -0.3694
vn -0.2577 0.5376 0.8029
vn -0.3452 0.4790 0.8071
vn -0.0989 0.5082 0.8556
vn -0.8576 0.2125 0.4684
vn -0.4362 0.4021 0.8050
vn -0.9164 -0.1401 -0.3750
vn -0.7322 -0.3985 -0.5523
vn 0.0919 0.2714 0.9581
vn 0.3580 0.1096 0.9272
vn 0.6530 0.0701 0.7541
vn 0.8177 -0.0343 0.5747
vn 0.6305 -0.7754 -0.0348
vn -0.9931 -0.0106 0.1170
vn -0.9968 0.0720 0.0344
vn -0.9956 -0.0210 -0.0910
vn -0.0500 0.8997 0.4335
vn 0.3468 0.8795 0.3259
vn 0.2950 0.8885 0.3516
vn -0.9234 0.0431 0.3815
vn -0.9038 -0.0300 0.4269
vn -0.4974 0.0016 0.8675
vn -0.1452 0.6081 0.7805
vn -0.1088 0.8873 0.4481
vn -0.0154 0.6148 0.7885
vn -0.4280 0.3310 0.8410
vn 0.1484 0.7472 0.6478
vn 0.1773 0.8296 0.5295
vn -0.8768 -0.1179 0.4662
vn -0.4445 -0.1360 -0.8854
vn 0.9992 0.0233 0.0313
vn 0.0095 0.6229 0.7823
vn 0.2934 0.3213 0.9004
vn -0.7777 -0.1218 -0.6167
vn -0.9842 -0.1073 -0.1409
vn 0.8829 0.1401 -0.4482
vn 0.3758 0.4692 0.7992
vn -0.9508 -0.1472 -0.2725
vn -0.9863 0.0668 -0.1506
vn 0.1822 0.7601 -0.6237
vn 0.0652 0.2305 -0.9709
vn -0.5018 -0.5618 -0.6577
vn -0.2161 -0.7049 -0.6756
vn -0.4390 -0.7627 -0.4750
vn -0.1155 -0.8735 -0.4728
vn -0.0460 -0.7561 -0.6528
vn 0.2007 -0.9076 -0.3687
vn -0.9875 0.1083 -0.1146
vn 0.9418 -0.2258 0.2490
vn 0.8037 -0.2235 0.5514
vn 0.8783 -0.0233 0.4776
vn 0.8545 0.0974 0.5102
vn 0.8147 -0.0005 0.5799
vn -0.8241 -0.5647 0.0449
vn -0.3749 -0.7919 0.4820
vn 0.4012 -0.7821 -0.4768
vn 0.6455 -0.6428 -0.4125
vn 0.0896 0.9902 -0.1069
vn -0.7719 -0.0357 0.6347
vn -0.7258 -0.1516 0.6710
vn -0.6746 0.2603 0.6908
vn -0.9143 0.3614 0.1830
vn 0.2566 0.3024 -0.9180
vn -0.0321 0.2146 -0.9762
vn -0.0030 0.6446 -0.7645
vn -0.1010 -0.0427 -0.9940
vn -0.3829 0.0701 -0.9211
vn -0.2890 -0.0866 -0.9534
vn 0.2506 -0.5946 -0.7640
vn 0.1261 -0.5270 -0.8404
vn -0.1784 -0.4196 -0.8900
vn -0.4216 -0.4396 -0.7931
vn -0.0613 -0.6565 -0.7518
vn -0.6599 0.5392 0.5233
vn -0.7139 -0.0396 0.6991
vn -0.5320 0.0838 0.8426
vn -0.3743 0.1143 0.9202
vn 0.8339 -0.1593 -0.5284
vn 0.1800 -0.3689 -0.9119
vn 0.1490 0.7032 0.6952
vn 0.0310 0.5206 0.8533
vn -0.2928 0.6847 0.6674
vn -0.9896 0.0151 0.1427
vn -0.7394 0.2688 0.6173
vn -0.8734 0.1259 0.4705
vn 0.4720 -0.7800 -0.4109
vn -0.3964 -0.2010 -0.8958
vn 0.2231 0.3402 -0.9135
vn 0.5660 0.7003 -0.4349
vn 0.4358 0.5078 -0.7432
vn 0.6387 0.3874 -0.6648
vn 0.5878 -0.1708 0.7908
vn -0.4883 0.2977 -0.8203
vn -0.2830 0.2703 -0.9202
vn -0.2782 0.0121 -0.9604
vn 0.0362 -0.7314 -0.6810
vn -0.2901 0.3350 -0.8965
vn 0.9779 0.0038 -0.2089
vn 0.8060 -0.0101 -0.5918
vn -0.9184 0.3891 0.0725
vn -0.9198 0.3589 0.1587
vn -0.8373 0.1679 0.5203
vn -0.8871 -0.4602 0.0356
vn -0.1686 -0.9821 0.0840
vn 0.9348 0.0684 -0.3486
vn -0.9431 0.2994 -0.1449
vn -0.9512 0.2836 0.1216
vn -0.7700 0.5542 -0.3162
vn -0.5457 0.8055 -0.2310
vn -0.7956 0.1208 0.5937
vn -0.6798 0.2590 0.6862
vn -0.9094 -0.3551 -0.2166
vn 0.8214 -0.5689 0.0411
vn 0.8381 -0.2812 0.4674
vn -0.8485 0.4488 -0.2803
vn -0.8812 0.3829 -0.2773
vn -0.9728 -0.2201 0.0727
vn -0.9414 -0.2547 0.2211
vn -0.2085 0.1854 0.9603
vn -0.2194 0.2782 0.9351
vn -0.8788 -0.4436 -0.1757
vn -0.7178 -0.6340 -0.2879
vn -0.5901 -0.8073 -0.0071
vn 0.0405 0.0065 -0.9992
vn 0.2441 -0.0499 0.9685
vn -0.8947 -0.3469 -0.2812
vn 0.0054 0.4814 0.8765
vn 0.1155 0.3263 -0.9382
vn -0.0534 0.2850 -0.9570
vn 0.5063 -0.8131 0.2874
vn -0.9469 -0.0388 -0.3192
vn -0.1399 0.3198 -0.9371
vn -0.8954 -0.2748 -0.3503
vn -0.8591 -0.3508 -0.3728
vn 0.3536 0.8357 -0.4203
vn 0.4838 0.6237 -0.6140
vn 0.5151 0.6825 -0.5185
vn 0.3693 0.9233 -0.1058
vn 0.6504 0.7301 -0.2098
vn 0.9341 0.2508 -0.2541
vn 0.1786 0.9807 -0.0799
vn 0.6817 0.1381 0.7185
vn 0.6707 -0.0340 0.7410
vn 0.7424 0.1301 0.6573
vn 0.7139 -0.1347 0.6872
vn 0.8434 0.1188 0.5239
vn 0.4206 0.9058 0.0508
vn -0.0521 0.9669 -0.2498
vn 0.7305 0.0150 -0.6828
vn 0.6750 -0.7135 -0.1878
vn 0.6872 -0.6797 -0.2563
vn 0.6572 0.4538 -0.6017
vn 0.2662 -0.7975 -0.5414
vn 0.8221 -0.3133 0.4755
vn 0.7411 0.4067 -0.5342
vn -0.3954 0.0350 0.9178
vn -0.0287 0.1039 0.9942
vn -0.8250 -0.1174 0.5528
vn 0.9461 -0.0757 0.3149
vn 0.9391 -0.0065 0.3436
vn 0.9170 -0.3457 0.1990
vn -0.2630 0.6668 -0.6973
vn -0.3103 0.8932 -0.3254
vn -0.3524 0.8347 -0.4232
vn -0.1658 0.8083 -0.5649
vn -0.9061 -0.1075 -0.4091
vn -0.3524 0.9309 0.0967
vn 0.1814 0.6160 0.7666
vn -0.8365 -0.2171 -0.5031
vn -0.7020 -0.3472 -0.6218
vn -0.7438 0.6060 -0.2820
vn -0.9234 0.2869 -0.2550
vn -0.6325 0.7277 -0.2655
vn -0.7464 -0.1082 0.6566
vn -0.7716 -0.0763 0.6315
vn -0.1522 0.7886 -0.5958
vn -0.2919 0.3495 -0.8903
vn 0.7201 -0.5863 0.3710
vn 0.4860 0.5436 0.6844
vn 0.7634 -0.2733 0.5852
vn -0.7774 0.1122 0.6189
vn 0.7608 0.5276 -0.3779
vn 0.5618 0.6361 -0.5290
vn 0.9153 -0.2912 0.2784
vn 0.8653 -0.1972 0.4607
vn -0.5061 0.6911 -0.5160
vn 0.2105 -0.6065 -0.7667
vn -0.8460 -0.3475 0.4044
vn -0.3152 -0.0224 0.9488
vn -0.2870 -0.0534 0.9564
vn -0.8655 0.4441 0.2319
vn -0.8031 0.5671 0.1827
vn -0.5354 -0.1549 0.8303
vn -0.0948 0.9954 0.0142
vn -0.8547 -0.3275 -0.4028
vn -0.6207 0.4027 -0.6727
vn -0.6564 0.2187 0.7220
vn -0.0942 -0.9956 -0.0026
vn -0.8253 -0.4577 0.3307
vn 0.4781 -0.7560 -0.4472
vn 0.3288 -0.7633 -0.5561
vn 0.1483 -0.7697 -0.6209
vn -0.5993 0.0871 0.7958
vn -0.8412 -0.2394 0.4848
vn -0.5745 0.7937 -0.2001
vn -0.4488 0.8373 -0.3124
vn -0.3905 0.8523 -0.3481
vn 0.3762 0.1348 0.9167
vn 0.5820 -0.8037 0.1242
vn 0.2540 -0.9450 -0.2060
vn 0.2760 -0.9609 0.0238
vn 0.0889 -0.1446 0.9855
vn -0.2792 0.2388 0.9300
vn 0.0782 0.8925 -0.4442
vn 0.4679 -0.0128 -0.8837
vn -0.8313 -0.5045 0.2331
vn -0.0265 0.8774 -0.4790
vn -0.2915 -0.9335 -0.2087
vn 0.4058 -0.1054 -0.9079
vn 0.7301 -0.6207 -0.2857
vn -0.6442 0.2506 0.7227
vn -0.9184 -0.2902 -0.2689
vn -0.9765 -0.0897 -0.1962
vn 0.2926 -0.7089 -0.6418
vn 0.2757 0.0825 0.9577
vn 0.5465 -0.0737 0.8342
vn 0.2682 -0.4209 0.8666
vn 0.2070 -0.9115 -0.3554
vn 0.6614 -0.7221 -0.2029
vn -0.1302 0.7029 -0.6992
vn 0.7511 -0.6480 -0.1262
vn 0.8289 -0.5582 0.0363
vn -0.8570 -0.0732 0.5101
vn -0.3602 0.2108 0.9087
vn -0.4575 0.5640 -0.6875
vn -0.3730 -0.2035 0.9052
vn 0.4373 0.4681 -0.7679
vn 0.2644 0.9582 -0.1093
vn 0.0170 0.3333 -0.9427
vn -0.5780 -0.3529 -0.7358
vn 0.4836 0.1382 0.8643
vn -0.2126 -0.1643 0.9632
vn -0.0324 0.6490 -0.7601
vn -0.0252 -0.1003 0.9946
vn 0.2478 -0.2161 0.9444
vn -0.1431 0.0810 0.9864
vn -0.1103 0.2263 0.9678
vn 0.6876 0.4954 -0.5309
vn -0.9068 -0.3531 0.2303
vn -0.4933 0.2818 -0.8230
vn 0.1524 0.7714 -0.6178
vn -0.7762 0.3764 -0.5058
usemtl Default_OBJ
s 1
f 1/1/1 2/2/2 3/3/3
f 4/4/4 5/5/5 6/6/6
f 7/7/7 8/8/8 9/9/9
f 8/8/8 10/10/10 9/9/9
f 11/11/11 12/12/12 13/13/13
f 14/14/14 15/15/15 16/16/16
f 17/17/17 18/18/18 19/19/19
f 20/20/20 21/21/21 22/22/22
f 23/23/23 24/24/24 25/25/25
f 26/26/26 27/27/27 28/28/28
f 29/29/29 30/30/30 31/31/31
f 32/32/32 33/33/33 34/34/34
f 35/35/35 36/36/36 37/37/37
f 38/38/38 39/39/39 40/40/40
f 41/41/41 42/42/42 43/43/43
f 44/44/44 45/45/45 46/46/46
f 47/47/47 48/48/48 49/49/49
f 50/50/50 51/51/51 52/52/52
f 53/53/53 54/54/54 55/55/55
f 46/46/46 56/56/56 57/57/57
f 58/58/58 59/59/59 60/60/60
f 61/61/61 62/62/62 63/63/63
f 21/21/21 64/64/64 22/22/22
f 65/65/65 59/59/59 66/66/66
f 29/29/29 31/31/31 67/67/67
f 68/68/68 69/69/69 70/70/70
f 71/71/71 72/72/72 73/73/73
f 2/2/2 74/74/74 3/3/3
f 75/75/75 76/76/76 77/77/77
f 78/78/78 79/79/79 80/80/80
f 81/81/81 63/63/63 62/62/62
f 82/82/82 14/14/14 83/83/83
f 84/84/84 85/85/85 86/86/86
f 87/87/87 88/88/88 56/56/56
f 39/39/39 89/89/89 40/40/40
f 90/90/90 64/64/64 91/91/91
f 92/92/92 93/93/93 94/94/94
f 95/95/95 52/52/52 96/96/96
f 97/97/97 98/98/98 99/99/99
f 100/100/100 101/101/101 102/102/102
f 103/103/103 104/104/104 105/105/105
f 106/106/106 107/107/107 108/108/108
f 109/109/109 110/110/110 111/111/111
f 112/112/112 113/113/113 114/114/114
f 115/115/115 116/116/116 117/117/117
f 118/118/118 119/119/119 120/120/120
f 121/121/121 122/122/122 123/123/123
f 99/99/99 124/124/124 125/125/125
f 126/126/126 127/127/127 128/128/128
f 129/129/129 130/130/130 131/131/131
f 132/132/132 85/85/85 84/84/84
f 133/133/133 134/134/134 135/135/135
f 136/136/136 137/137/137 138/138/138
f 139/139/139 140/140/140 141/141/141
f 142/142/142 84/84/84 86/86/86
f 143/143/143 144/144/144 145/145/145
f 19/19/19 18/18/18 146/146/146
f 31/31/31 147/147/147 148/148/148
f 149/149/149 150/150/150 96/96/96
f 6/6/6 5/5/5 151/151/151
f 152/152/152 91/91/91 153/153/153
f 154/154/154 152/152/152 155/155/155
f 156/156/156 157/157/157 158/158/158
f 45/45/45 159/159/159 158/158/158
f 29/29/29 160/160/160 161/161/161
f 70/70/70 162/162/162 163/163/163
f 100/100/100 164/164/164 165/165/165
f 166/166/166 167/167/167 168/168/168
f 169/169/169 85/85/85 132/132/132
f 47/47/47 49/49/49 170/170/170
f 171/171/171 172/172/172 51/51/51
f 173/173/173 174/174/174 175/175/175
f 176/176/176 73/73/73 154/154/154
f 177/177/177 178/178/178 179/179/179
f 69/69/69 68/68/68 180/180/180
f 181/181/181 180/180/180 68/68/68
f 182/182/182 181/181/181 183/183/183
f 184/184/184 185/185/185 80/80/80
f 186/186/186 187/187/187 118/118/118
f 118/118/118 120/120/120 188/188/188
f 189/189/189 190/190/190 191/191/191
f 62/62/62 192/192/192 81/81/81
f 193/193/193 194/194/194 184/184/184
f 168/168/168 195/195/195 196/196/196
f 49/49/49 8/8/8 7/7/7
f 197/197/197 127/127/127 198/198/198
f 163/163/163 173/173/173 175/175/175
f 199/199/199 27/27/27 200/200/200
f 111/111/111 201/201/201 202/202/202
f 203/203/203 133/133/133 135/135/135
f 204/204/204 205/205/205 206/206/206
f 207/207/207 204/204/204 206/206/206
f 197/197/197 198/198/198 208/208/208
f 51/51/51 209/209/209 208/208/208
f 210/210/210 195/195/195 211/211/211
f 64/212/64 207/207/207 212/213/212
f 213/214/213 214/215/214 215/216/215
f 213/214/213 216/217/216 217/218/217
f 218/219/218 26/220/26 219/221/219
f 220/222/220 83/83/83 14/14/14
f 111/111/111 221/223/221 201/201/201
f 44/44/44 46/46/46 222/224/222
f 6/6/6 151/151/151 223/225/223
f 224/226/224 225/227/225 226/228/226
f 131/131/131 130/130/130 126/126/126
f 105/105/105 227/229/227 31/31/31
f 228/230/228 99/99/99 229/231/229
f 111/111/111 230/232/230 109/109/109
f 88/88/88 169/169/169 132/132/132
f 157/157/157 231/233/231 232/234/232
f 233/235/233 234/236/234 235/237/235
f 137/137/137 236/238/236 237/239/237
f 37/37/37 36/36/36 238/240/238
f 239/241/239 240/242/240 69/69/69
f 241/243/241 119/119/119 116/116/116
f 119/244/119 242/245/242 243/246/243
f 244/247/244 24/24/24 23/23/23
f 122/122/122 121/121/121 245/248/245
f 217/218/217 216/217/216 246/249/246
f 54/250/54 94/94/94 93/93/93
f 10/10/10 247/251/247 9/9/9
f 119/244/119 248/252/248 249/253/249
f 250/254/250 251/255/251 252/256/252
f 62/62/62 253/257/253 254/258/254
f 80/80/80 255/259/255 78/78/78
f 80/80/80 256/260/256 255/259/255
f 257/261/257 258/262/258 191/191/191
f 259/263/259 260/264/260 231/233/231
f 261/265/261 104/104/104 103/103/103
f 214/215/214 103/103/103 215/216/215
f 262/266/262 263/267/263 264/268/264
f 137/137/137 263/267/263 236/238/236
f 265/269/265 266/270/266 267/271/267
f 25/25/25 24/24/24 81/81/81
f 199/199/199 268/272/268 269/273/269
f 270/274/270 172/172/172 171/171/171
f 271/275/271 272/276/272 190/190/190
f 273/277/273 266/270/266 265/269/265
f 274/278/274 250/254/250 252/256/252
f 275/279/275 192/192/192 276/280/276
f 277/281/277 263/267/263 140/282/140
f 263/267/263 262/266/262 140/282/140
f 165/165/165 164/164/164 168/168/168
f 101/101/101 278/283/278 102/102/102
f 56/56/56 88/88/88 279/284/279
f 57/57/57 56/56/56 133/133/133
f 280/285/280 281/286/281 257/261/257
f 281/286/281 258/262/258 257/261/257
f 32/32/32 182/182/182 33/33/33
f 282/287/282 255/259/255 283/288/283
f 144/144/144 284/289/284 42/42/42
f 143/143/143 142/142/142 144/144/144
f 53/53/53 94/290/94 54/54/54
f 258/262/258 14/14/14 285/291/285
f 264/268/264 34/292/34 262/266/262
f 76/76/76 286/293/286 287/294/287
f 288/295/288 177/177/177 11/11/11
f 289/296/289 100/100/100 102/102/102
f 290/297/290 291/298/291 292/299/292
f 293/300/293 294/301/294 295/302/295
f 136/136/136 296/303/296 137/137/137
f 264/268/264 287/294/287 34/292/34
f 297/304/297 298/305/298 242/306/242
f 299/307/299 300/308/300 301/309/301
f 67/67/67 302/310/302 303/311/303
f 160/160/160 29/29/29 67/67/67
f 205/205/205 304/312/304 206/206/206
f 248/252/248 305/313/305 249/253/249
f 288/295/288 178/178/178 177/177/177
f 306/314/306 288/295/288 201/201/201
f 160/160/160 67/67/67 303/311/303
f 307/315/307 308/316/308 174/174/174
f 253/257/253 234/236/234 309/317/309
f 234/236/234 233/235/233 310/318/310
f 311/319/311 312/320/312 313/321/313
f 314/322/314 315/323/315 316/324/316
f 317/325/317 318/326/318 319/327/319
f 320/328/320 321/329/321 38/38/38
f 309/317/309 234/236/234 322/330/322
f 323/331/323 324/332/324 325/333/325
f 56/56/56 279/284/279 145/145/145
f 145/145/145 326/334/326 143/143/143
f 26/26/26 200/200/200 27/27/27
f 140/282/140 139/335/139 277/281/277
f 64/212/64 327/336/327 207/207/207
f 21/337/21 327/336/327 64/212/64
f 275/279/275 276/280/276 328/338/328
f 275/279/275 329/339/329 330/340/330
f 141/141/141 331/341/331 332/342/332
f 183/183/183 70/70/70 333/343/333
f 247/251/247 105/105/105 334/344/334
f 148/148/148 105/105/105 31/31/31
f 64/64/64 212/345/212 91/91/91
f 195/195/195 335/346/335 211/211/211
f 183/183/183 68/68/68 70/70/70
f 183/183/183 181/181/181 68/68/68
f 311/319/311 336/347/336 312/320/312
f 337/348/337 338/349/338 339/350/339
f 108/108/108 107/107/107 217/218/217
f 149/149/149 96/96/96 340/351/340
f 312/320/312 314/322/314 316/324/316
f 336/347/336 314/322/314 312/320/312
f 59/59/59 75/75/75 60/60/60
f 341/352/341 78/78/78 59/59/59
f 336/347/336 342/353/342 343/354/343
f 342/353/342 155/155/155 343/354/343
f 291/298/291 146/146/146 292/299/292
f 19/19/19 146/146/146 344/355/344
f 168/168/168 65/65/65 345/356/345
f 345/356/345 165/165/165 168/168/168
f 346/357/346 86/86/86 347/358/347
f 241/243/241 116/116/116 115/115/115
f 348/359/348 136/136/136 349/360/349
f 349/360/349 350/361/350 235/237/235
f 302/310/302 67/67/67 351/362/351
f 351/362/351 227/229/227 352/363/352
f 115/115/115 117/117/117 347/358/347
f 347/358/347 353/364/353 115/115/115
f 354/365/354 348/359/348 355/366/355
f 245/248/245 356/367/356 357/368/357
f 358/369/358 359/370/359 163/163/163
f 360/371/360 199/199/199 200/200/200
f 361/372/361 7/7/7 9/9/9
f 170/373/170 362/374/362 298/305/298
f 355/366/355 356/367/356 354/365/354
f 363/375/363 77/77/77 364/376/364
f 69/69/69 162/162/162 70/70/70
f 365/377/365 366/378/366 69/69/69
f 242/245/242 361/372/361 243/246/243
f 242/306/242 298/305/298 362/374/362
f 324/332/324 367/379/367 368/380/368
f 324/332/324 368/380/368 325/333/325
f 69/69/69 240/242/240 365/377/365
f 369/381/369 370/382/370 371/383/371
f 167/167/167 372/384/372 195/195/195
f 168/168/168 167/167/167 195/195/195
f 149/149/149 93/93/93 373/385/373
f 223/225/223 149/149/149 373/385/373
f 374/386/374 370/382/370 369/381/369
f 290/297/290 292/299/292 36/36/36
f 251/255/251 375/387/375 252/256/252
f 281/286/281 14/14/14 258/262/258
f 376/388/376 312/320/312 316/324/316
f 316/324/316 377/389/377 376/388/376
f 126/126/126 378/390/378 127/127/127
f 126/126/126 130/130/130 378/390/378
f 379/391/379 35/35/35 239/241/239
f 379/391/379 239/241/239 69/69/69
f 316/324/316 315/323/315 164/164/164
f 380/392/380 167/167/167 166/166/166
f 381/393/381 382/394/382 379/391/379
f 80/80/80 185/185/185 256/260/256
f 235/237/235 234/236/234 253/257/253
f 235/237/235 253/257/253 62/62/62
f 383/395/383 384/396/384 385/397/385
f 386/398/386 387/399/387 306/314/306
f 388/400/388 353/364/353 85/85/85
f 169/169/169 388/400/388 85/85/85
f 199/199/199 163/163/163 268/272/268
f 358/369/358 163/163/163 199/199/199
f 221/223/221 389/401/389 201/201/201
f 110/110/110 221/223/221 111/111/111
f 120/120/120 115/115/115 353/364/353
f 353/364/353 188/188/188 120/120/120
f 390/402/390 391/403/391 392/404/392
f 393/405/393 394/406/394 260/264/260
f 395/407/395 44/44/44 222/224/222
f 110/110/110 389/401/389 221/223/221
f 351/362/351 31/31/31 227/229/227
f 67/67/67 31/31/31 351/362/351
f 182/182/182 183/183/183 33/33/33
f 33/33/33 183/183/183 331/341/331
f 110/110/110 44/44/44 389/401/389
f 23/23/23 25/25/25 396/408/396
f 397/409/397 346/357/346 347/358/347
f 144/144/144 142/142/142 284/289/284
f 398/410/398 334/344/334 17/17/17
f 248/252/248 399/411/399 305/313/305
f 114/114/114 113/113/113 24/24/24
f 244/247/244 114/114/114 24/24/24
f 397/409/397 347/358/347 20/20/20
f 397/409/397 72/72/72 42/42/42
f 20/20/20 73/73/73 72/72/72
f 397/409/397 20/20/20 72/72/72
f 291/298/291 290/297/290 344/355/344
f 344/355/344 146/146/146 291/298/291
f 51/51/51 208/208/208 52/52/52
f 208/208/208 198/198/198 106/106/106
f 400/412/400 72/72/72 71/71/71
f 176/176/176 71/71/71 73/73/73
f 40/40/40 344/355/344 290/297/290
f 401/413/401 344/355/344 40/40/40
f 402/414/402 170/373/170 298/305/298
f 394/406/394 402/414/402 298/305/298
f 176/176/176 400/412/400 71/71/71
f 403/415/403 400/412/400 176/176/176
f 324/332/324 404/416/404 405/417/405
f 323/331/323 406/418/406 324/332/324
f 394/406/394 407/419/407 408/420/408
f 407/419/407 409/421/409 408/420/408
f 292/299/292 146/146/146 293/300/293
f 370/382/370 30/30/30 371/383/371
f 410/422/410 98/98/98 97/97/97
f 377/389/377 100/100/100 98/98/98
f 243/246/243 9/9/9 399/411/399
f 361/372/361 9/9/9 243/246/243
f 411/423/411 121/121/121 123/123/123
f 411/423/411 412/424/412 413/425/413
f 414/426/414 282/287/282 283/288/283
f 59/59/59 282/287/282 414/426/414
f 415/427/415 114/114/114 109/109/109
f 230/232/230 415/427/415 109/109/109
f 189/189/189 159/159/159 45/45/45
f 273/277/273 271/275/271 416/428/416
f 109/109/109 114/114/114 244/247/244
f 109/109/109 244/247/244 110/110/110
f 38/38/38 40/40/40 290/297/290
f 417/429/417 38/38/38 418/430/418
f 125/125/125 124/124/124 419/431/419
f 124/124/124 420/432/420 421/433/421
f 301/309/301 298/305/298 299/307/299
f 394/406/394 298/305/298 260/264/260
f 417/429/417 418/430/418 382/394/382
f 418/430/418 38/38/38 290/297/290
f 194/194/194 193/193/193 79/79/79
f 65/65/65 341/352/341 59/59/59
f 199/199/199 422/434/422 27/27/27
f 4/4/4 423/435/423 5/5/5
f 35/35/35 290/297/290 36/36/36
f 290/297/290 382/394/382 418/430/418
f 195/195/195 210/210/210 196/196/196
f 65/65/65 210/210/210 341/352/341
f 49/49/49 7/7/7 170/170/170
f 170/170/170 7/7/7 362/436/362
f 168/168/168 196/196/196 424/437/424
f 196/196/196 210/210/210 425/438/425
f 201/201/201 386/398/386 306/314/306
f 389/401/389 386/398/386 201/201/201
f 368/380/368 367/379/367 224/226/224
f 367/379/367 225/227/225 224/226/224
f 247/251/247 334/344/334 398/410/398
f 9/9/9 247/251/247 398/410/398
f 149/149/149 340/351/340 93/93/93
f 340/351/340 426/439/426 217/218/217
f 45/45/45 158/158/158 427/440/427
f 46/46/46 87/87/87 56/56/56
f 350/361/350 233/235/233 235/237/235
f 233/235/233 26/220/26 218/219/218
f 159/159/159 156/156/156 158/158/158
f 189/189/189 156/156/156 159/159/159
f 54/250/54 93/93/93 428/441/428
f 340/351/340 217/218/217 93/93/93
f 237/239/237 236/238/236 350/361/350
f 277/281/277 139/335/139 429/442/429
f 134/134/134 430/443/430 135/135/135
f 384/396/384 431/444/431 385/397/385
f 54/250/54 432/445/432 47/47/47
f 433/446/433 54/250/54 428/441/428
f 252/256/252 375/387/375 281/286/281
f 252/256/252 281/286/281 280/285/280
f 2/2/2 102/102/102 278/283/278
f 289/296/289 102/102/102 2/2/2
f 399/411/399 398/410/398 17/17/17
f 9/9/9 398/410/398 399/411/399
f 335/346/335 317/447/317 319/448/319
f 317/447/317 372/384/372 91/91/91
f 25/25/25 265/269/265 396/408/396
f 25/25/25 275/279/275 330/340/330
f 132/132/132 84/84/84 143/143/143
f 143/143/143 84/84/84 142/142/142
f 321/329/321 39/39/39 38/38/38
f 319/327/319 318/326/318 321/329/321
f 77/77/77 296/303/296 136/136/136
f 77/77/77 76/76/76 296/303/296
f 307/315/307 161/161/161 308/316/308
f 69/69/69 366/378/366 162/162/162
f 434/449/434 419/431/419 121/121/121
f 121/121/121 421/433/421 245/248/245
f 318/326/318 435/450/435 39/39/39
f 318/326/318 39/39/39 321/329/321
f 413/425/413 229/231/229 411/423/411
f 434/449/434 125/125/125 419/431/419
f 175/175/175 436/451/436 437/452/437
f 438/453/438 129/129/129 209/209/209
f 235/237/235 62/62/62 61/61/61
f 355/366/355 439/454/439 440/455/440
f 166/166/166 315/323/315 155/155/155
f 314/322/314 155/155/155 315/323/315
f 268/272/268 163/163/163 175/175/175
f 175/175/175 441/456/441 172/172/172
f 396/408/396 265/269/265 267/271/267
f 396/408/396 267/271/267 442/457/442
f 24/24/24 113/113/113 61/61/61
f 355/366/355 440/455/440 113/113/113
f 417/429/417 382/394/382 381/393/381
f 182/182/182 443/458/443 381/393/381
f 99/99/99 444/459/444 124/124/124
f 124/124/124 363/375/363 364/376/364
f 175/175/175 174/174/174 436/451/436
f 130/130/130 129/129/129 303/311/303
f 1/1/1 99/99/99 2/2/2
f 2/2/2 99/99/99 98/98/98
f 264/268/264 263/267/263 137/137/137
f 137/137/137 296/303/296 264/268/264
f 377/389/377 316/324/316 100/100/100
f 316/324/316 164/164/164 100/100/100
f 324/332/324 445/460/445 404/416/404
f 404/461/404 445/462/445 4/4/4
f 293/300/293 148/148/148 147/147/147
f 446/463/446 30/30/30 370/382/370
f 47/464/47 409/421/409 407/419/407
f 53/53/53 55/55/55 407/419/407
f 118/118/118 242/306/242 119/119/119
f 187/187/187 242/306/242 118/118/118
f 371/383/371 30/30/30 29/29/29
f 447/465/447 29/29/29 161/161/161
f 435/450/435 448/466/448 449/467/449
f 39/39/39 435/450/435 450/468/450
f 27/27/27 4/4/4 451/469/451
f 27/27/27 452/470/452 4/4/4
f 453/471/453 245/248/245 415/427/415
f 454/472/454 453/471/453 415/427/415
f 452/470/452 423/435/423 4/4/4
f 423/435/423 269/273/269 268/272/268
f 454/472/454 455/473/455 453/471/453
f 412/424/412 411/423/411 123/123/123
f 168/168/168 424/437/424 65/65/65
f 425/438/425 210/210/210 65/65/65
f 226/228/226 391/403/391 456/474/456
f 224/226/224 226/228/226 16/16/16
f 65/65/65 278/283/278 345/356/345
f 165/165/165 345/356/345 278/283/278
f 198/198/198 457/475/457 107/107/107
f 106/106/106 198/198/198 107/107/107
f 439/454/439 235/237/235 440/455/440
f 348/359/348 349/360/349 235/237/235
f 104/104/104 458/476/458 105/105/105
f 352/363/352 458/476/458 459/477/459
f 50/50/50 52/52/52 460/478/460
f 270/274/270 171/171/171 5/5/5
f 88/88/88 300/308/300 299/307/299
f 158/158/158 157/157/157 88/88/88
f 272/276/272 271/275/271 461/479/461
f 275/279/275 328/338/328 329/339/329
f 217/218/217 107/107/107 213/214/213
f 213/214/213 107/107/107 457/475/457
f 323/331/323 451/480/451 406/418/406
f 451/469/451 4/4/4 445/462/445
f 248/252/248 243/246/243 399/411/399
f 119/244/119 243/246/243 248/252/248
f 197/197/197 128/128/128 127/127/127
f 209/209/209 129/129/129 131/131/131
f 395/407/395 222/224/222 386/398/386
f 203/203/203 57/57/57 133/133/133
f 192/192/192 275/279/275 81/81/81
f 81/81/81 275/279/275 25/25/25
f 230/232/230 413/425/413 412/424/412
f 230/232/230 454/472/454 415/427/415
f 80/80/80 193/193/193 184/184/184
f 79/79/79 193/193/193 80/80/80
f 111/111/111 413/425/413 230/232/230
f 462/481/462 413/425/413 111/111/111
f 308/316/308 160/160/160 303/311/303
f 161/161/161 160/160/160 308/316/308
f 128/128/128 131/131/131 126/126/126
f 209/209/209 131/131/131 128/128/128
f 347/358/347 117/117/117 463/482/463
f 347/358/347 463/482/463 20/20/20
f 302/310/302 130/130/130 303/311/303
f 302/310/302 351/362/351 464/483/464
f 111/111/111 202/202/202 462/481/462
f 465/484/465 462/481/462 13/13/13
f 245/248/245 357/368/357 112/112/112
f 356/367/356 355/366/355 357/368/357
f 192/192/192 250/254/250 274/278/274
f 192/192/192 280/285/280 276/280/276
f 13/13/13 288/295/288 11/11/11
f 202/202/202 13/13/13 462/481/462
f 355/366/355 113/113/113 112/112/112
f 357/368/357 355/366/355 112/112/112
f 262/485/262 34/34/34 33/33/33
f 262/485/262 33/33/33 331/341/331
f 254/258/254 250/254/250 62/62/62
f 62/62/62 250/254/250 192/192/192
f 292/299/292 466/486/466 370/382/370
f 292/299/292 370/382/370 374/386/374
f 262/485/262 331/341/331 140/140/140
f 140/140/140 331/341/331 141/141/141
f 20/20/20 463/482/463 21/21/21
f 21/337/21 463/487/463 467/488/467
f 385/397/385 179/179/179 178/178/178
f 179/179/179 403/415/403 176/176/176
f 327/336/327 204/204/204 207/207/207
f 467/488/467 463/487/463 468/489/468
f 359/370/359 70/70/70 163/163/163
f 333/343/333 70/70/70 332/342/332
f 253/257/253 309/317/309 254/258/254
f 323/331/323 469/490/469 309/317/309
f 327/336/327 467/488/467 204/204/204
f 467/488/467 327/336/327 21/337/21
f 332/342/332 70/70/70 359/370/359
f 332/342/332 359/370/359 358/369/358
f 152/152/152 90/90/90 91/91/91
f 20/20/20 22/22/22 73/73/73
f 470/491/470 182/182/182 32/32/32
f 470/491/470 443/458/443 182/182/182
f 117/492/117 205/205/205 468/489/468
f 463/487/463 117/492/117 468/489/468
f 22/22/22 64/64/64 90/90/90
f 22/22/22 90/90/90 152/152/152
f 471/493/471 32/494/32 286/293/286
f 414/426/414 283/288/283 471/493/471
f 22/22/22 152/152/152 73/73/73
f 73/73/73 152/152/152 154/154/154
f 249/253/249 305/313/305 205/205/205
f 249/253/249 205/205/205 117/492/117
f 352/363/352 227/229/227 458/476/458
f 227/229/227 105/105/105 458/476/458
f 75/75/75 414/426/414 76/76/76
f 59/59/59 414/426/414 75/75/75
f 304/312/304 205/205/205 305/313/305
f 435/450/435 304/312/304 448/466/448
f 85/85/85 353/364/353 86/86/86
f 86/86/86 353/364/353 347/358/347
f 259/263/259 393/405/393 260/264/260
f 191/191/191 258/262/258 259/263/259
f 91/91/91 372/384/372 167/167/167
f 167/167/167 153/153/153 91/91/91
f 399/411/399 17/17/17 305/313/305
f 304/312/304 305/313/305 448/466/448
f 390/402/390 392/404/392 258/262/258
f 258/262/258 392/404/392 259/263/259
f 436/451/436 303/311/303 129/129/129
f 436/451/436 129/129/129 438/453/438
f 305/313/305 17/17/17 448/466/448
f 472/495/472 448/466/448 17/17/17
f 473/496/473 474/497/474 426/439/426
f 473/496/473 426/439/426 475/498/475
f 231/233/231 191/191/191 259/263/259
f 191/191/191 156/156/156 189/189/189
f 170/373/170 409/421/409 47/464/47
f 409/421/409 170/373/170 402/414/402
f 330/340/330 329/339/329 265/269/265
f 330/340/330 265/269/265 25/25/25
f 402/414/402 408/420/408 409/421/409
f 402/414/402 394/406/394 408/420/408
f 387/399/387 135/135/135 430/443/430
f 387/399/387 203/203/203 135/135/135
f 61/61/61 63/63/63 24/24/24
f 24/24/24 63/63/63 81/81/81
f 353/364/353 388/400/388 188/188/188
f 186/186/186 118/118/118 188/188/188
f 203/203/203 387/399/387 386/398/386
f 222/224/222 203/203/203 386/398/386
f 18/18/18 295/302/295 294/301/294
f 476/499/476 105/105/105 148/148/148
f 470/491/470 256/500/256 443/458/443
f 443/458/443 256/500/256 381/393/381
f 477/501/477 105/105/105 247/251/247
f 103/103/103 105/105/105 477/501/477
f 465/484/465 13/13/13 478/502/478
f 413/425/413 478/502/478 229/231/229
f 174/174/174 303/311/303 436/451/436
f 174/174/174 308/316/308 303/311/303
f 479/503/479 103/103/103 10/10/10
f 215/216/215 103/103/103 480/504/480
f 365/377/365 447/465/447 366/378/366
f 365/377/365 240/242/240 447/465/447
f 17/17/17 334/344/334 18/18/18
f 148/148/148 18/18/18 476/499/476
f 48/48/48 215/216/215 49/49/49
f 215/216/215 480/504/480 49/49/49
f 295/302/295 18/18/18 148/148/148
f 295/302/295 148/148/148 293/300/293
f 162/162/162 173/173/173 163/163/163
f 162/162/162 161/161/161 481/505/481
f 479/503/479 10/10/10 8/8/8
f 49/49/49 479/503/479 8/8/8
f 391/403/391 407/419/407 394/406/394
f 391/403/391 394/406/394 393/405/393
f 211/211/211 194/194/194 210/210/210
f 210/210/210 194/194/194 341/352/341
f 309/317/309 482/506/482 251/255/251
f 251/255/251 220/222/220 14/14/14
f 436/451/436 438/453/438 437/452/437
f 172/172/172 441/456/441 51/51/51
f 341/352/341 79/79/79 78/78/78
f 341/352/341 194/194/194 79/79/79
f 208/208/208 106/106/106 52/52/52
f 52/52/52 474/497/474 473/496/473
f 350/361/350 236/238/236 429/442/429
f 233/235/233 350/361/350 429/442/429
f 319/327/319 321/329/321 320/328/320
f 194/194/194 211/211/211 184/184/184
f 92/92/92 373/385/373 93/93/93
f 405/507/405 373/385/373 225/508/225
f 406/418/406 445/460/445 324/332/324
f 406/418/406 451/480/451 445/460/445
f 278/283/278 65/65/65 74/74/74
f 278/283/278 74/74/74 2/2/2
f 218/219/218 219/221/219 323/331/323
f 322/330/322 323/331/323 309/317/309
f 3/3/3 66/66/66 59/59/59
f 58/58/58 3/3/3 59/59/59
f 355/366/355 348/359/348 439/454/439
f 348/359/348 235/237/235 439/454/439
f 309/317/309 469/490/469 482/506/482
f 469/490/469 323/331/323 325/333/325
f 99/99/99 125/125/125 483/509/483
f 483/509/483 125/125/125 411/423/411
f 65/65/65 66/66/66 74/74/74
f 74/74/74 66/66/66 3/3/3
f 469/490/469 325/333/325 482/506/482
f 484/510/484 325/333/325 83/83/83
f 146/146/146 18/18/18 294/301/294
f 146/146/146 294/301/294 293/300/293
f 245/248/245 112/112/112 114/114/114
f 245/248/245 114/114/114 415/427/415
f 430/443/430 431/444/431 384/396/384
f 385/397/385 431/444/431 337/348/337
f 485/511/485 313/321/313 376/388/376
f 313/321/313 312/320/312 376/388/376
f 430/443/430 134/134/134 43/43/43
f 431/444/431 430/443/430 337/348/337
f 366/378/366 447/465/447 161/161/161
f 366/378/366 161/161/161 162/162/162
f 485/511/485 376/388/376 377/389/377
f 410/422/410 377/389/377 98/98/98
f 385/397/385 403/415/403 179/179/179
f 337/348/337 339/350/339 385/397/385
f 244/247/244 442/457/442 110/110/110
f 442/457/442 486/512/486 110/110/110
f 306/314/306 384/396/384 383/395/383
f 306/314/306 383/395/383 288/295/288
f 293/300/293 147/147/147 30/30/30
f 31/31/31 30/30/30 147/147/147
f 338/349/338 400/412/400 403/415/403
f 43/43/43 42/42/42 338/349/338
f 124/124/124 364/376/364 420/432/420
f 356/367/356 420/432/420 354/365/354
f 384/396/384 387/399/387 430/443/430
f 306/314/306 387/399/387 384/396/384
f 338/349/338 42/42/42 400/412/400
f 400/412/400 42/42/42 72/72/72
f 420/432/420 364/376/364 354/365/354
f 136/136/136 348/359/348 354/365/354
f 177/177/177 313/321/313 485/511/485
f 179/179/179 313/321/313 177/177/177
f 144/144/144 42/42/42 41/41/41
f 134/134/134 41/41/41 43/43/43
f 155/155/155 380/392/380 166/166/166
f 155/155/155 152/152/152 153/153/153
f 179/179/179 176/176/176 487/513/487
f 487/513/487 313/321/313 179/179/179
f 134/134/134 144/144/144 41/41/41
f 134/134/134 145/145/145 144/144/144
f 190/190/190 257/261/257 191/191/191
f 280/285/280 257/261/257 276/280/276
f 383/395/383 385/397/385 178/178/178
f 288/295/288 383/395/383 178/178/178
f 53/53/53 407/419/407 391/403/391
f 226/228/226 53/53/53 391/403/391
f 315/323/315 166/166/166 164/164/164
f 166/166/166 168/168/168 164/164/164
f 176/176/176 154/154/154 336/347/336
f 487/513/487 176/176/176 336/347/336
f 453/471/453 455/473/455 122/122/122
f 122/122/122 245/248/245 453/471/453
f 184/184/184 320/514/320 488/515/488
f 211/211/211 320/514/320 184/184/184
f 127/127/127 104/104/104 261/265/261
f 213/214/213 457/475/457 214/215/214
f 373/385/373 92/92/92 225/508/225
f 92/92/92 94/94/94 225/508/225
f 488/516/488 320/328/320 38/38/38
f 184/184/184 488/515/488 185/185/185
f 54/54/54 47/464/47 55/55/55
f 55/55/55 47/464/47 407/419/407
f 240/242/240 239/241/239 37/37/37
f 239/241/239 35/35/35 37/37/37
f 362/436/362 361/372/361 242/245/242
f 362/436/362 7/7/7 361/372/361
f 185/517/185 38/38/38 417/429/417
f 488/516/488 38/38/38 185/517/185
f 456/474/456 16/16/16 226/228/226
f 390/402/390 456/474/456 391/403/391
f 158/158/158 88/88/88 87/87/87
f 427/440/427 158/158/158 87/87/87
f 202/202/202 288/295/288 13/13/13
f 201/201/201 288/295/288 202/202/202
f 299/307/299 298/305/298 297/304/297
f 242/306/242 187/187/187 297/304/297
f 489/518/489 390/402/390 258/262/258
f 16/16/16 456/474/456 390/402/390
f 88/88/88 299/307/299 169/169/169
f 299/307/299 297/304/297 187/187/187
f 34/292/34 286/293/286 32/494/32
f 287/294/287 286/293/286 34/292/34
f 490/519/490 405/507/405 404/461/404
f 4/4/4 6/6/6 404/461/404
f 187/187/187 388/400/388 169/169/169
f 169/169/169 299/307/299 187/187/187
f 1/1/1 3/3/3 58/58/58
f 99/99/99 1/1/1 444/459/444
f 279/284/279 326/334/326 145/145/145
f 326/334/326 132/132/132 143/143/143
f 417/429/417 381/393/381 256/500/256
f 256/500/256 185/517/185 417/429/417
f 279/284/279 88/88/88 132/132/132
f 279/284/279 132/132/132 326/334/326
f 426/439/426 108/108/108 217/218/217
f 426/439/426 474/497/474 108/108/108
f 203/203/203 222/224/222 57/57/57
f 222/224/222 46/46/46 57/57/57
f 156/156/156 231/233/231 157/157/157
f 231/233/231 156/156/156 191/191/191
f 115/115/115 120/120/120 241/243/241
f 120/120/120 119/119/119 241/243/241
f 300/308/300 232/234/232 301/309/301
f 231/233/231 260/264/260 232/234/232
f 367/379/367 405/417/405 225/227/225
f 324/332/324 405/417/405 367/379/367
f 232/234/232 260/264/260 301/309/301
f 260/264/260 298/305/298 301/309/301
f 331/341/331 183/183/183 333/343/333
f 331/341/331 333/343/333 332/342/332
f 372/384/372 317/447/317 335/346/335
f 195/195/195 372/384/372 335/346/335
f 172/172/172 270/274/270 423/435/423
f 5/5/5 423/435/423 270/274/270
f 283/288/283 470/520/470 32/494/32
f 471/493/471 283/288/283 32/494/32
f 153/153/153 167/167/167 491/521/491
f 155/155/155 153/153/153 491/521/491
f 95/95/95 96/96/96 150/150/150
f 492/522/492 150/150/150 151/151/151
f 56/56/56 145/145/145 133/133/133
f 133/133/133 145/145/145 134/134/134
f 467/488/467 468/489/468 204/204/204
f 468/489/468 205/205/205 204/204/204
f 492/522/492 493/523/493 150/150/150
f 492/522/492 50/50/50 493/523/493
f 354/365/354 364/376/364 136/136/136
f 364/376/364 77/77/77 136/136/136
f 130/130/130 459/477/459 378/390/378
f 378/390/378 459/477/459 127/127/127
f 368/380/368 82/82/82 83/83/83
f 325/333/325 368/380/368 83/83/83
f 290/297/290 35/35/35 382/394/382
f 379/391/379 382/394/382 35/35/35
f 405/507/405 223/225/223 373/385/373
f 405/507/405 490/519/490 223/225/223
f 87/87/87 46/46/46 427/440/427
f 45/45/45 427/440/427 46/46/46
f 404/461/404 6/6/6 490/519/490
f 490/519/490 6/6/6 223/225/223
f 428/441/428 217/218/217 246/249/246
f 217/218/217 428/441/428 93/93/93
f 267/271/267 266/270/266 44/44/44
f 486/512/486 44/44/44 110/110/110
f 268/272/268 175/175/175 172/172/172
f 423/435/423 268/272/268 172/172/172
f 429/442/429 26/220/26 233/235/233
f 139/335/139 26/220/26 429/442/429
f 461/479/461 271/275/271 273/277/273
f 329/339/329 328/338/328 461/479/461
f 154/154/154 342/353/342 336/347/336
f 154/154/154 155/155/155 342/353/342
f 451/469/451 28/28/28 27/27/27
f 26/26/26 28/28/28 219/524/219
f 273/277/273 329/339/329 461/479/461
f 329/339/329 273/277/273 265/269/265
f 150/150/150 149/149/149 151/151/151
f 223/225/223 151/151/151 149/149/149
f 219/524/219 28/28/28 451/469/451
f 219/221/219 451/480/451 323/331/323
f 98/98/98 100/100/100 289/296/289
f 98/98/98 289/296/289 2/2/2
f 50/50/50 460/478/460 493/523/493
f 493/523/493 460/478/460 150/150/150
f 421/433/421 420/432/420 356/367/356
f 421/433/421 356/367/356 245/248/245
f 52/52/52 473/496/473 96/96/96
f 96/96/96 473/496/473 475/498/475
f 388/400/388 186/186/186 188/188/188
f 187/187/187 186/186/186 388/400/388
f 460/478/460 95/95/95 150/150/150
f 460/478/460 52/52/52 95/95/95
f 411/423/411 125/125/125 434/449/434
f 411/423/411 434/449/434 121/121/121
f 446/463/446 293/300/293 30/30/30
f 466/486/466 446/463/446 370/382/370
f 459/477/459 104/104/104 127/127/127
f 458/476/458 104/104/104 459/477/459
f 14/14/14 494/525/494 15/15/15
f 224/226/224 16/16/16 15/15/15
f 446/463/446 466/486/466 293/300/293
f 466/486/466 292/299/292 293/300/293
f 127/127/127 261/265/261 214/215/214
f 214/215/214 261/265/261 103/103/103
f 368/380/368 224/226/224 82/82/82
f 495/526/495 224/226/224 15/15/15
f 276/280/276 190/190/190 272/276/272
f 276/280/276 257/261/257 190/190/190
f 127/127/127 457/475/457 198/198/198
f 457/475/457 127/127/127 214/215/214
f 14/14/14 82/82/82 494/525/494
f 495/526/495 15/15/15 494/525/494
f 440/455/440 235/237/235 61/61/61
f 113/113/113 440/455/440 61/61/61
f 82/82/82 495/526/495 494/525/494
f 82/82/82 224/226/224 495/526/495
f 207/207/207 435/450/435 318/326/318
f 212/213/212 207/207/207 318/326/318
f 60/60/60 75/75/75 77/77/77
f 58/58/58 60/60/60 77/77/77
f 349/360/349 138/138/138 350/361/350
f 136/136/136 138/138/138 349/360/349
f 375/387/375 14/14/14 281/286/281
f 14/14/14 375/387/375 251/255/251
f 471/493/471 286/293/286 76/76/76
f 76/76/76 414/426/414 471/493/471
f 138/138/138 137/137/137 237/239/237
f 138/138/138 237/239/237 350/361/350
f 226/228/226 225/227/225 94/290/94
f 226/228/226 94/290/94 53/53/53
f 480/504/480 479/503/479 49/49/49
f 103/103/103 479/503/479 480/504/480
f 139/139/139 141/141/141 200/200/200
f 139/139/139 200/200/200 26/26/26
f 18/18/18 334/344/334 476/499/476
f 105/105/105 476/499/476 334/344/334
f 192/192/192 274/278/274 280/285/280
f 252/256/252 280/285/280 274/278/274
f 233/235/233 218/219/218 310/318/310
f 234/236/234 310/318/310 322/330/322
f 328/338/328 276/280/276 272/276/272
f 461/479/461 328/338/328 272/276/272
f 229/231/229 99/99/99 483/509/483
f 229/231/229 483/509/483 411/423/411
f 218/219/218 323/331/323 322/330/322
f 310/318/310 218/219/218 322/330/322
f 304/312/304 435/450/435 206/206/206
f 207/207/207 206/206/206 435/450/435
f 437/452/437 438/453/438 441/456/441
f 441/456/441 175/175/175 437/452/437
f 397/409/397 42/42/42 284/289/284
f 346/357/346 397/409/397 284/289/284
f 157/157/157 232/234/232 300/308/300
f 157/157/157 300/308/300 88/88/88
f 339/350/339 338/349/338 403/415/403
f 385/397/385 339/350/339 403/415/403
f 481/505/481 161/161/161 307/315/307
f 162/162/162 481/505/481 173/173/173
f 189/189/189 271/275/271 190/190/190
f 271/275/271 189/189/189 416/428/416
f 489/518/489 258/262/258 285/291/285
f 14/14/14 16/16/16 285/291/285
f 173/173/173 307/315/307 174/174/174
f 481/505/481 307/315/307 173/173/173
f 442/457/442 23/23/23 396/408/396
f 442/457/442 244/247/244 23/23/23
f 285/291/285 16/16/16 489/518/489
f 489/518/489 16/16/16 390/402/390
f 209/209/209 128/128/128 197/197/197
f 208/208/208 209/209/209 197/197/197
f 486/512/486 267/271/267 44/44/44
f 442/457/442 267/271/267 486/512/486
f 76/76/76 287/294/287 296/303/296
f 296/303/296 287/294/287 264/268/264
f 314/322/314 343/354/343 155/155/155
f 336/347/336 343/354/343 314/322/314
f 474/497/474 106/106/106 108/108/108
f 52/52/52 106/106/106 474/497/474
f 452/470/452 422/434/422 423/435/423
f 422/434/422 452/470/452 27/27/27
f 487/513/487 336/347/336 496/527/496
f 496/527/496 313/321/313 487/513/487
f 256/260/256 470/520/470 255/259/255
f 255/259/255 470/520/470 283/288/283
f 422/434/422 269/273/269 423/435/423
f 422/434/422 199/199/199 269/273/269
f 212/213/212 318/326/318 317/325/317
f 91/91/91 212/345/212 317/447/317
f 389/401/389 44/44/44 395/407/395
f 389/401/389 395/407/395 386/398/386
f 78/78/78 255/259/255 282/287/282
f 59/59/59 78/78/78 282/287/282
f 116/528/116 119/244/119 249/253/249
f 116/528/116 249/253/249 117/492/117
f 211/211/211 335/346/335 319/448/319
f 211/211/211 319/448/319 320/514/320
f 462/481/462 465/484/465 413/425/413
f 465/484/465 478/502/478 413/425/413
f 142/142/142 346/357/346 284/289/284
f 142/142/142 86/86/86 346/357/346
f 447/465/447 371/383/371 29/29/29
f 447/465/447 369/381/369 371/383/371
f 250/254/250 254/258/254 251/255/251
f 254/258/254 309/317/309 251/255/251
f 360/371/360 358/369/358 199/199/199
f 200/200/200 141/141/141 497/529/497
f 37/37/37 238/240/238 240/242/240
f 369/381/369 447/465/447 240/242/240
f 351/362/351 352/363/352 464/483/464
f 302/310/302 464/483/464 130/130/130
f 332/342/332 358/369/358 141/141/141
f 141/141/141 358/369/358 497/529/497
f 130/130/130 352/363/352 459/477/459
f 464/483/464 352/363/352 130/130/130
f 498/530/498 278/283/278 101/101/101
f 100/100/100 498/530/498 101/101/101
f 200/200/200 497/529/497 360/371/360
f 497/529/497 358/369/358 360/371/360
f 216/217/216 215/216/215 48/48/48
f 213/214/213 215/216/215 216/217/216
f 498/530/498 165/165/165 278/283/278
f 100/100/100 165/165/165 498/530/498
f 292/299/292 374/386/374 36/36/36
f 374/386/374 238/240/238 36/36/36
f 428/441/428 246/249/246 433/446/433
f 246/249/246 216/217/216 48/48/48
f 43/43/43 338/349/338 337/348/337
f 337/348/337 430/443/430 43/43/43
f 475/498/475 426/439/426 340/351/340
f 96/96/96 475/498/475 340/351/340
f 325/333/325 484/510/484 482/506/482
f 484/510/484 83/83/83 220/222/220
f 273/277/273 416/428/416 266/270/266
f 189/189/189 45/45/45 416/428/416
f 392/404/392 393/405/393 259/263/259
f 391/403/391 393/405/393 392/404/392
f 482/506/482 220/222/220 251/255/251
f 484/510/484 220/222/220 482/506/482
f 266/270/266 416/428/416 45/45/45
f 44/44/44 266/270/266 45/45/45
f 477/501/477 247/251/247 10/10/10
f 103/103/103 477/501/477 10/10/10
f 13/13/13 12/12/12 478/502/478
f 12/12/12 410/422/410 97/97/97
f 424/437/424 425/438/425 65/65/65
f 196/196/196 425/438/425 424/437/424
f 238/240/238 369/381/369 240/242/240
f 238/240/238 374/386/374 369/381/369
f 401/413/401 19/19/19 344/355/344
f 435/450/435 449/467/449 450/468/450
f 478/502/478 228/230/228 229/231/229
f 478/502/478 12/12/12 228/230/228
f 433/446/433 432/445/432 54/250/54
f 433/446/433 246/249/246 432/445/432
f 448/466/448 472/495/472 449/467/449
f 449/467/449 472/495/472 401/413/401
f 228/230/228 97/97/97 99/99/99
f 97/97/97 228/230/228 12/12/12
f 47/47/47 432/445/432 48/48/48
f 432/445/432 246/249/246 48/48/48
f 472/495/472 17/17/17 19/19/19
f 472/495/472 19/19/19 401/413/401
f 11/11/11 177/177/177 499/531/499
f 11/11/11 410/422/410 12/12/12
f 89/89/89 401/413/401 40/40/40
f 450/468/450 89/89/89 39/39/39
f 51/51/51 438/453/438 209/209/209
f 51/51/51 441/456/441 438/453/438
f 401/413/401 89/89/89 450/468/450
f 449/467/449 401/413/401 450/468/450
f 499/531/499 177/177/177 485/511/485
f 11/11/11 499/531/499 410/422/410
f 277/281/277 429/442/429 236/238/236
f 263/267/263 277/281/277 236/238/236
f 492/522/492 151/151/151 5/5/5
f 171/171/171 492/522/492 5/5/5
f 410/422/410 485/511/485 377/389/377
f 485/511/485 410/422/410 499/531/499
f 500/532/500 58/58/58 77/77/77
f 444/459/444 1/1/1 58/58/58
f 171/171/171 51/51/51 50/50/50
f 171/171/171 50/50/50 492/522/492
f 58/58/58 500/532/500 444/459/444
f 363/375/363 500/532/500 77/77/77
f 455/473/455 123/123/123 122/122/122
f 412/424/412 123/123/123 455/473/455
f 363/375/363 444/459/444 500/532/500
f 124/124/124 444/459/444 363/375/363
f 496/527/496 311/319/311 313/321/313
f 336/347/336 311/319/311 496/527/496
f 454/472/454 230/232/230 412/424/412
f 412/424/412 455/473/455 454/472/454
f 180/180/180 381/393/381 379/391/379
f 180/180/180 379/391/379 69/69/69
f 182/182/182 381/393/381 181/181/181
f 381/393/381 180/180/180 181/181/181
f 380/392/380 491/521/491 167/167/167
f 155/155/155 491/521/491 380/392/380
f 121/121/121 419/431/419 421/433/421
f 419/431/419 124/124/124 421/433/421
