# Blender v2.82 (sub 7) OBJ File: ''
# www.blender.org
mtllib wall.mtl
o Cube.001
v 0.809083 21.590164 -22.218790
v 0.809080 21.590157 22.218794
v 0.809083 -23.058189 22.218788
v 0.809087 -23.058182 -22.218796
v -0.809080 -23.058182 -22.218796
v -0.809083 -23.058189 22.218788
v -0.809087 21.590157 22.218794
v -0.809083 21.590164 -22.218790
vt 1.690278 1.690278
vt -0.690278 1.690278
vt -0.690278 -0.690278
vt 1.690278 -0.690278
vt 1.690278 -0.690278
vt 1.690278 1.690278
vt -0.690278 1.690278
vt -0.690278 -0.690278
vt 1.690278 1.690278
vt 1.690278 -0.690278
vt -0.690278 1.690278
vt 1.690278 1.690278
vt 1.690278 -0.690278
vt -0.690278 1.690278
vt -0.690278 -0.690278
vt -0.690278 -0.690278
vn 1.0000 0.0000 0.0000
vn 0.0000 -1.0000 -0.0000
vn 0.0000 -0.0000 1.0000
vn -1.0000 -0.0000 -0.0000
vn 0.0000 0.0000 -1.0000
vn 0.0000 1.0000 0.0000
usemtl Material.001
s 1
f 1/1/1 2/2/1 3/3/1 4/4/1
f 5/5/2 4/6/2 3/7/2 6/8/2
f 6/8/3 3/7/3 2/9/3 7/10/3
f 7/11/4 8/12/4 5/5/4 6/8/4
f 8/13/5 1/1/5 4/14/5 5/15/5
f 7/16/6 2/2/6 1/1/6 8/13/6
